,Position,Track Name,Artist,Streams,URL,Date,Region
3117643,1,Shape of You,Ed Sheeran,6151345,https://open.spotify.com/track/7qiZfU4dY1lWllzX7mPBI3,2017-01-06,global
3117843,1,Shape of You,Ed Sheeran,6602494,https://open.spotify.com/track/7qiZfU4dY1lWllzX7mPBI3,2017-01-07,global
3118043,1,Shape of You,Ed Sheeran,6557531,https://open.spotify.com/track/7qiZfU4dY1lWllzX7mPBI3,2017-01-08,global
3118243,1,Shape of You,Ed Sheeran,7261007,https://open.spotify.com/track/7qiZfU4dY1lWllzX7mPBI3,2017-01-09,global
3118443,1,Shape of You,Ed Sheeran,7145757,https://open.spotify.com/track/7qiZfU4dY1lWllzX7mPBI3,2017-01-10,global
3118643,1,Shape of You,Ed Sheeran,7193934,https://open.spotify.com/track/7qiZfU4dY1lWllzX7mPBI3,2017-01-11,global
3118843,1,Shape of You,Ed Sheeran,7081620,https://open.spotify.com/track/7qiZfU4dY1lWllzX7mPBI3,2017-01-12,global
3119043,1,Shape of You,Ed Sheeran,7275946,https://open.spotify.com/track/7qiZfU4dY1lWllzX7mPBI3,2017-01-13,global
3119243,1,Shape of You,Ed Sheeran,7093868,https://open.spotify.com/track/7qiZfU4dY1lWllzX7mPBI3,2017-01-14,global
3119443,1,Shape of You,Ed Sheeran,6451891,https://open.spotify.com/track/7qiZfU4dY1lWllzX7mPBI3,2017-01-15,global
3119643,1,Shape of You,Ed Sheeran,7071702,https://open.spotify.com/track/7qiZfU4dY1lWllzX7mPBI3,2017-01-16,global
3119843,1,Shape of You,Ed Sheeran,7086602,https://open.spotify.com/track/7qiZfU4dY1lWllzX7mPBI3,2017-01-17,global
3120043,1,Shape of You,Ed Sheeran,7153915,https://open.spotify.com/track/7qiZfU4dY1lWllzX7mPBI3,2017-01-18,global
3120243,1,Shape of You,Ed Sheeran,7133303,https://open.spotify.com/track/7qiZfU4dY1lWllzX7mPBI3,2017-01-19,global
3120443,1,Shape of You,Ed Sheeran,7299280,https://open.spotify.com/track/7qiZfU4dY1lWllzX7mPBI3,2017-01-20,global
3120643,1,Shape of You,Ed Sheeran,7057075,https://open.spotify.com/track/7qiZfU4dY1lWllzX7mPBI3,2017-01-21,global
3120843,1,Shape of You,Ed Sheeran,6423764,https://open.spotify.com/track/7qiZfU4dY1lWllzX7mPBI3,2017-01-22,global
3121043,1,Shape of You,Ed Sheeran,7058537,https://open.spotify.com/track/7qiZfU4dY1lWllzX7mPBI3,2017-01-23,global
3121243,1,Shape of You,Ed Sheeran,7169081,https://open.spotify.com/track/7qiZfU4dY1lWllzX7mPBI3,2017-01-24,global
3121443,1,Shape of You,Ed Sheeran,7259975,https://open.spotify.com/track/7qiZfU4dY1lWllzX7mPBI3,2017-01-25,global
3121643,1,Shape of You,Ed Sheeran,7398092,https://open.spotify.com/track/7qiZfU4dY1lWllzX7mPBI3,2017-01-26,global
3121843,1,Shape of You,Ed Sheeran,7765131,https://open.spotify.com/track/7qiZfU4dY1lWllzX7mPBI3,2017-01-27,global
3122043,1,Shape of You,Ed Sheeran,7423086,https://open.spotify.com/track/7qiZfU4dY1lWllzX7mPBI3,2017-01-28,global
3122243,1,Shape of You,Ed Sheeran,6539160,https://open.spotify.com/track/7qiZfU4dY1lWllzX7mPBI3,2017-01-29,global
3122443,1,Shape of You,Ed Sheeran,7122914,https://open.spotify.com/track/7qiZfU4dY1lWllzX7mPBI3,2017-01-30,global
3122643,1,Shape of You,Ed Sheeran,7419406,https://open.spotify.com/track/7qiZfU4dY1lWllzX7mPBI3,2017-01-31,global
3122843,1,Shape of You,Ed Sheeran,7549041,https://open.spotify.com/track/7qiZfU4dY1lWllzX7mPBI3,2017-02-01,global
3123043,1,Shape of You,Ed Sheeran,7602214,https://open.spotify.com/track/7qiZfU4dY1lWllzX7mPBI3,2017-02-02,global
3123243,1,Shape of You,Ed Sheeran,7881255,https://open.spotify.com/track/7qiZfU4dY1lWllzX7mPBI3,2017-02-03,global
3123443,1,Shape of You,Ed Sheeran,7740851,https://open.spotify.com/track/7qiZfU4dY1lWllzX7mPBI3,2017-02-04,global
3123643,1,Shape of You,Ed Sheeran,6968082,https://open.spotify.com/track/7qiZfU4dY1lWllzX7mPBI3,2017-02-05,global
3123843,1,Shape of You,Ed Sheeran,7138916,https://open.spotify.com/track/7qiZfU4dY1lWllzX7mPBI3,2017-02-06,global
3124043,1,Shape of You,Ed Sheeran,7458487,https://open.spotify.com/track/7qiZfU4dY1lWllzX7mPBI3,2017-02-07,global
3124243,1,Shape of You,Ed Sheeran,7557934,https://open.spotify.com/track/7qiZfU4dY1lWllzX7mPBI3,2017-02-08,global
3124443,1,Shape of You,Ed Sheeran,7473863,https://open.spotify.com/track/7qiZfU4dY1lWllzX7mPBI3,2017-02-09,global
3124643,1,Shape of You,Ed Sheeran,7783927,https://open.spotify.com/track/7qiZfU4dY1lWllzX7mPBI3,2017-02-10,global
3124843,1,Shape of You,Ed Sheeran,7714323,https://open.spotify.com/track/7qiZfU4dY1lWllzX7mPBI3,2017-02-11,global
3125043,1,Shape of You,Ed Sheeran,6845116,https://open.spotify.com/track/7qiZfU4dY1lWllzX7mPBI3,2017-02-12,global
3125243,1,Shape of You,Ed Sheeran,7344569,https://open.spotify.com/track/7qiZfU4dY1lWllzX7mPBI3,2017-02-13,global
3125443,1,Shape of You,Ed Sheeran,7511927,https://open.spotify.com/track/7qiZfU4dY1lWllzX7mPBI3,2017-02-14,global
3125643,1,Shape of You,Ed Sheeran,7558862,https://open.spotify.com/track/7qiZfU4dY1lWllzX7mPBI3,2017-02-15,global
3125843,1,Shape of You,Ed Sheeran,7573141,https://open.spotify.com/track/7qiZfU4dY1lWllzX7mPBI3,2017-02-16,global
3126043,1,Shape of You,Ed Sheeran,7985803,https://open.spotify.com/track/7qiZfU4dY1lWllzX7mPBI3,2017-02-17,global
3126243,1,Shape of You,Ed Sheeran,7855366,https://open.spotify.com/track/7qiZfU4dY1lWllzX7mPBI3,2017-02-18,global
3126443,1,Shape of You,Ed Sheeran,6879577,https://open.spotify.com/track/7qiZfU4dY1lWllzX7mPBI3,2017-02-19,global
3126643,1,Shape of You,Ed Sheeran,7193281,https://open.spotify.com/track/7qiZfU4dY1lWllzX7mPBI3,2017-02-20,global
3126843,1,Shape of You,Ed Sheeran,7266474,https://open.spotify.com/track/7qiZfU4dY1lWllzX7mPBI3,2017-02-21,global
3127043,1,Shape of You,Ed Sheeran,7317633,https://open.spotify.com/track/7qiZfU4dY1lWllzX7mPBI3,2017-02-22,global
3127243,1,Shape of You,Ed Sheeran,7758898,https://open.spotify.com/track/7qiZfU4dY1lWllzX7mPBI3,2017-02-24,global
3127443,1,Shape of You,Ed Sheeran,7632460,https://open.spotify.com/track/7qiZfU4dY1lWllzX7mPBI3,2017-02-25,global
3127643,1,Shape of You,Ed Sheeran,6583478,https://open.spotify.com/track/7qiZfU4dY1lWllzX7mPBI3,2017-02-26,global
3127843,1,Shape of You,Ed Sheeran,6873096,https://open.spotify.com/track/7qiZfU4dY1lWllzX7mPBI3,2017-02-27,global
3128043,1,Shape of You,Ed Sheeran,7059172,https://open.spotify.com/track/7qiZfU4dY1lWllzX7mPBI3,2017-02-28,global
3128243,1,Shape of You,Ed Sheeran,7201132,https://open.spotify.com/track/7qiZfU4dY1lWllzX7mPBI3,2017-03-01,global
3128443,1,Shape of You,Ed Sheeran,7326148,https://open.spotify.com/track/7qiZfU4dY1lWllzX7mPBI3,2017-03-02,global
3128643,1,Shape of You,Ed Sheeran,9891056,https://open.spotify.com/track/7qiZfU4dY1lWllzX7mPBI3,2017-03-03,global
3128652,10,Perfect,Ed Sheeran,3384117,https://open.spotify.com/track/0tgVpDi06FyKpA1z0VMD4v,2017-03-03,global
3128843,1,Shape of You,Ed Sheeran,9603434,https://open.spotify.com/track/7qiZfU4dY1lWllzX7mPBI3,2017-03-04,global
3128851,9,Perfect,Ed Sheeran,3431702,https://open.spotify.com/track/0tgVpDi06FyKpA1z0VMD4v,2017-03-04,global
3129043,1,Shape of You,Ed Sheeran,8454962,https://open.spotify.com/track/7qiZfU4dY1lWllzX7mPBI3,2017-03-05,global
3129049,7,Perfect,Ed Sheeran,3284604,https://open.spotify.com/track/0tgVpDi06FyKpA1z0VMD4v,2017-03-05,global
3129243,1,Shape of You,Ed Sheeran,8900049,https://open.spotify.com/track/7qiZfU4dY1lWllzX7mPBI3,2017-03-07,global
3129248,6,Perfect,Ed Sheeran,3599472,https://open.spotify.com/track/0tgVpDi06FyKpA1z0VMD4v,2017-03-07,global
3129443,1,Shape of You,Ed Sheeran,8738426,https://open.spotify.com/track/7qiZfU4dY1lWllzX7mPBI3,2017-03-08,global
3129449,7,Perfect,Ed Sheeran,3467458,https://open.spotify.com/track/0tgVpDi06FyKpA1z0VMD4v,2017-03-08,global
3129643,1,Shape of You,Ed Sheeran,8695555,https://open.spotify.com/track/7qiZfU4dY1lWllzX7mPBI3,2017-03-09,global
3129651,9,Perfect,Ed Sheeran,3321704,https://open.spotify.com/track/0tgVpDi06FyKpA1z0VMD4v,2017-03-09,global
3129843,1,Shape of You,Ed Sheeran,8849461,https://open.spotify.com/track/7qiZfU4dY1lWllzX7mPBI3,2017-03-10,global
3129851,9,Perfect,Ed Sheeran,3161957,https://open.spotify.com/track/0tgVpDi06FyKpA1z0VMD4v,2017-03-10,global
3130043,1,Shape of You,Ed Sheeran,8664792,https://open.spotify.com/track/7qiZfU4dY1lWllzX7mPBI3,2017-03-11,global
3130055,13,Perfect,Ed Sheeran,2845887,https://open.spotify.com/track/0tgVpDi06FyKpA1z0VMD4v,2017-03-11,global
3130243,1,Shape of You,Ed Sheeran,7642879,https://open.spotify.com/track/7qiZfU4dY1lWllzX7mPBI3,2017-03-12,global
3130254,12,Perfect,Ed Sheeran,2606119,https://open.spotify.com/track/0tgVpDi06FyKpA1z0VMD4v,2017-03-12,global
3130443,1,Shape of You,Ed Sheeran,7855284,https://open.spotify.com/track/7qiZfU4dY1lWllzX7mPBI3,2017-03-13,global
3130454,12,Perfect,Ed Sheeran,2755347,https://open.spotify.com/track/0tgVpDi06FyKpA1z0VMD4v,2017-03-13,global
3130643,1,Shape of You,Ed Sheeran,7721959,https://open.spotify.com/track/7qiZfU4dY1lWllzX7mPBI3,2017-03-14,global
3130656,14,Perfect,Ed Sheeran,2605624,https://open.spotify.com/track/0tgVpDi06FyKpA1z0VMD4v,2017-03-14,global
3130843,1,Shape of You,Ed Sheeran,7704578,https://open.spotify.com/track/7qiZfU4dY1lWllzX7mPBI3,2017-03-15,global
3130856,14,Perfect,Ed Sheeran,2522504,https://open.spotify.com/track/0tgVpDi06FyKpA1z0VMD4v,2017-03-15,global
3131043,1,Shape of You,Ed Sheeran,7668500,https://open.spotify.com/track/7qiZfU4dY1lWllzX7mPBI3,2017-03-16,global
3131058,16,Perfect,Ed Sheeran,2443420,https://open.spotify.com/track/0tgVpDi06FyKpA1z0VMD4v,2017-03-16,global
3131243,1,Shape of You,Ed Sheeran,7889417,https://open.spotify.com/track/7qiZfU4dY1lWllzX7mPBI3,2017-03-17,global
3131260,18,Perfect,Ed Sheeran,2376663,https://open.spotify.com/track/0tgVpDi06FyKpA1z0VMD4v,2017-03-17,global
3131443,1,Shape of You,Ed Sheeran,7765409,https://open.spotify.com/track/7qiZfU4dY1lWllzX7mPBI3,2017-03-18,global
3131461,19,Perfect,Ed Sheeran,2162927,https://open.spotify.com/track/0tgVpDi06FyKpA1z0VMD4v,2017-03-18,global
3131643,1,Shape of You,Ed Sheeran,6791017,https://open.spotify.com/track/7qiZfU4dY1lWllzX7mPBI3,2017-03-19,global
3131680,38,Perfect,Ed Sheeran,2030429,https://open.spotify.com/track/0tgVpDi06FyKpA1z0VMD4v,2017-03-19,global
3131843,1,Shape of You,Ed Sheeran,6990435,https://open.spotify.com/track/7qiZfU4dY1lWllzX7mPBI3,2017-03-20,global
3131878,36,Perfect,Ed Sheeran,2111175,https://open.spotify.com/track/0tgVpDi06FyKpA1z0VMD4v,2017-03-20,global
3132043,1,Shape of You,Ed Sheeran,7049619,https://open.spotify.com/track/7qiZfU4dY1lWllzX7mPBI3,2017-03-21,global
3132077,35,Perfect,Ed Sheeran,2050572,https://open.spotify.com/track/0tgVpDi06FyKpA1z0VMD4v,2017-03-21,global
3132243,1,Shape of You,Ed Sheeran,7063984,https://open.spotify.com/track/7qiZfU4dY1lWllzX7mPBI3,2017-03-22,global
3132276,34,Perfect,Ed Sheeran,1981018,https://open.spotify.com/track/0tgVpDi06FyKpA1z0VMD4v,2017-03-22,global
3132443,1,Shape of You,Ed Sheeran,7042985,https://open.spotify.com/track/7qiZfU4dY1lWllzX7mPBI3,2017-03-23,global
3132475,33,Perfect,Ed Sheeran,1941416,https://open.spotify.com/track/0tgVpDi06FyKpA1z0VMD4v,2017-03-23,global
3132643,1,Shape of You,Ed Sheeran,7376172,https://open.spotify.com/track/7qiZfU4dY1lWllzX7mPBI3,2017-03-24,global
3132673,31,Perfect,Ed Sheeran,1920592,https://open.spotify.com/track/0tgVpDi06FyKpA1z0VMD4v,2017-03-24,global
3132843,1,Shape of You,Ed Sheeran,7429090,https://open.spotify.com/track/7qiZfU4dY1lWllzX7mPBI3,2017-03-25,global
3132871,29,Perfect,Ed Sheeran,1827037,https://open.spotify.com/track/0tgVpDi06FyKpA1z0VMD4v,2017-03-25,global
3133043,1,Shape of You,Ed Sheeran,6393509,https://open.spotify.com/track/7qiZfU4dY1lWllzX7mPBI3,2017-03-26,global
3133068,26,Perfect,Ed Sheeran,1731391,https://open.spotify.com/track/0tgVpDi06FyKpA1z0VMD4v,2017-03-26,global
3133243,1,Shape of You,Ed Sheeran,6668249,https://open.spotify.com/track/7qiZfU4dY1lWllzX7mPBI3,2017-03-27,global
3133268,26,Perfect,Ed Sheeran,1863996,https://open.spotify.com/track/0tgVpDi06FyKpA1z0VMD4v,2017-03-27,global
3133443,1,Shape of You,Ed Sheeran,6681485,https://open.spotify.com/track/7qiZfU4dY1lWllzX7mPBI3,2017-03-28,global
3133469,27,Perfect,Ed Sheeran,1847126,https://open.spotify.com/track/0tgVpDi06FyKpA1z0VMD4v,2017-03-28,global
3133643,1,Shape of You,Ed Sheeran,6670212,https://open.spotify.com/track/7qiZfU4dY1lWllzX7mPBI3,2017-03-29,global
3133669,27,Perfect,Ed Sheeran,1823261,https://open.spotify.com/track/0tgVpDi06FyKpA1z0VMD4v,2017-03-29,global
3133843,1,Shape of You,Ed Sheeran,6645957,https://open.spotify.com/track/7qiZfU4dY1lWllzX7mPBI3,2017-03-30,global
3133871,29,Perfect,Ed Sheeran,1797668,https://open.spotify.com/track/0tgVpDi06FyKpA1z0VMD4v,2017-03-30,global
3134043,1,Shape of You,Ed Sheeran,6935206,https://open.spotify.com/track/7qiZfU4dY1lWllzX7mPBI3,2017-03-31,global
3134073,31,Perfect,Ed Sheeran,1783578,https://open.spotify.com/track/0tgVpDi06FyKpA1z0VMD4v,2017-03-31,global
3134243,1,Shape of You,Ed Sheeran,6815498,https://open.spotify.com/track/7qiZfU4dY1lWllzX7mPBI3,2017-04-01,global
3134274,32,Perfect,Ed Sheeran,1661692,https://open.spotify.com/track/0tgVpDi06FyKpA1z0VMD4v,2017-04-01,global
3134443,1,Shape of You,Ed Sheeran,5983149,https://open.spotify.com/track/7qiZfU4dY1lWllzX7mPBI3,2017-04-02,global
3134471,29,Perfect,Ed Sheeran,1558603,https://open.spotify.com/track/0tgVpDi06FyKpA1z0VMD4v,2017-04-02,global
3134643,1,Shape of You,Ed Sheeran,6155248,https://open.spotify.com/track/7qiZfU4dY1lWllzX7mPBI3,2017-04-03,global
3134671,29,Perfect,Ed Sheeran,1670187,https://open.spotify.com/track/0tgVpDi06FyKpA1z0VMD4v,2017-04-03,global
3134843,1,Shape of You,Ed Sheeran,6184460,https://open.spotify.com/track/7qiZfU4dY1lWllzX7mPBI3,2017-04-04,global
3134871,29,Perfect,Ed Sheeran,1662134,https://open.spotify.com/track/0tgVpDi06FyKpA1z0VMD4v,2017-04-04,global
3135043,1,Shape of You,Ed Sheeran,6142684,https://open.spotify.com/track/7qiZfU4dY1lWllzX7mPBI3,2017-04-05,global
3135073,31,Perfect,Ed Sheeran,1647495,https://open.spotify.com/track/0tgVpDi06FyKpA1z0VMD4v,2017-04-05,global
3135243,1,Shape of You,Ed Sheeran,6121652,https://open.spotify.com/track/7qiZfU4dY1lWllzX7mPBI3,2017-04-06,global
3135275,33,Perfect,Ed Sheeran,1623040,https://open.spotify.com/track/0tgVpDi06FyKpA1z0VMD4v,2017-04-06,global
3135443,1,Shape of You,Ed Sheeran,6527529,https://open.spotify.com/track/7qiZfU4dY1lWllzX7mPBI3,2017-04-07,global
3135480,38,Perfect,Ed Sheeran,1607908,https://open.spotify.com/track/0tgVpDi06FyKpA1z0VMD4v,2017-04-07,global
3135643,1,Shape of You,Ed Sheeran,6413787,https://open.spotify.com/track/7qiZfU4dY1lWllzX7mPBI3,2017-04-08,global
3135685,43,Perfect,Ed Sheeran,1478458,https://open.spotify.com/track/0tgVpDi06FyKpA1z0VMD4v,2017-04-08,global
3135843,1,Shape of You,Ed Sheeran,5651069,https://open.spotify.com/track/7qiZfU4dY1lWllzX7mPBI3,2017-04-09,global
3135881,39,Perfect,Ed Sheeran,1372114,https://open.spotify.com/track/0tgVpDi06FyKpA1z0VMD4v,2017-04-09,global
3136043,1,Shape of You,Ed Sheeran,5915537,https://open.spotify.com/track/7qiZfU4dY1lWllzX7mPBI3,2017-04-10,global
3136078,36,Perfect,Ed Sheeran,1498079,https://open.spotify.com/track/0tgVpDi06FyKpA1z0VMD4v,2017-04-10,global
3136243,1,Shape of You,Ed Sheeran,5874544,https://open.spotify.com/track/7qiZfU4dY1lWllzX7mPBI3,2017-04-11,global
3136281,39,Perfect,Ed Sheeran,1485230,https://open.spotify.com/track/0tgVpDi06FyKpA1z0VMD4v,2017-04-11,global
3136443,1,Shape of You,Ed Sheeran,5864254,https://open.spotify.com/track/7qiZfU4dY1lWllzX7mPBI3,2017-04-12,global
3136482,40,Perfect,Ed Sheeran,1455344,https://open.spotify.com/track/0tgVpDi06FyKpA1z0VMD4v,2017-04-12,global
3136643,1,Shape of You,Ed Sheeran,5985290,https://open.spotify.com/track/7qiZfU4dY1lWllzX7mPBI3,2017-04-13,global
3136686,44,Perfect,Ed Sheeran,1435696,https://open.spotify.com/track/0tgVpDi06FyKpA1z0VMD4v,2017-04-13,global
3136844,2,Shape of You,Ed Sheeran,5726828,https://open.spotify.com/track/7qiZfU4dY1lWllzX7mPBI3,2017-04-14,global
3136898,56,Perfect,Ed Sheeran,1338247,https://open.spotify.com/track/0tgVpDi06FyKpA1z0VMD4v,2017-04-14,global
3137044,2,Shape of You,Ed Sheeran,5525951,https://open.spotify.com/track/7qiZfU4dY1lWllzX7mPBI3,2017-04-15,global
3137099,57,Perfect,Ed Sheeran,1183466,https://open.spotify.com/track/0tgVpDi06FyKpA1z0VMD4v,2017-04-15,global
3137244,2,Shape of You,Ed Sheeran,5009330,https://open.spotify.com/track/7qiZfU4dY1lWllzX7mPBI3,2017-04-16,global
3137296,54,Perfect,Ed Sheeran,1101186,https://open.spotify.com/track/0tgVpDi06FyKpA1z0VMD4v,2017-04-16,global
3137444,2,Shape of You,Ed Sheeran,5387938,https://open.spotify.com/track/7qiZfU4dY1lWllzX7mPBI3,2017-04-17,global
3137498,56,Perfect,Ed Sheeran,1207132,https://open.spotify.com/track/0tgVpDi06FyKpA1z0VMD4v,2017-04-17,global
3137644,2,Shape of You,Ed Sheeran,5507119,https://open.spotify.com/track/7qiZfU4dY1lWllzX7mPBI3,2017-04-18,global
3137700,58,Perfect,Ed Sheeran,1210538,https://open.spotify.com/track/0tgVpDi06FyKpA1z0VMD4v,2017-04-18,global
3137844,2,Shape of You,Ed Sheeran,5387974,https://open.spotify.com/track/7qiZfU4dY1lWllzX7mPBI3,2017-04-19,global
3137905,63,Perfect,Ed Sheeran,1170664,https://open.spotify.com/track/0tgVpDi06FyKpA1z0VMD4v,2017-04-19,global
3138044,2,Shape of You,Ed Sheeran,5418445,https://open.spotify.com/track/7qiZfU4dY1lWllzX7mPBI3,2017-04-20,global
3138106,64,Perfect,Ed Sheeran,1149673,https://open.spotify.com/track/0tgVpDi06FyKpA1z0VMD4v,2017-04-20,global
3138245,3,Shape of You,Ed Sheeran,5667250,https://open.spotify.com/track/7qiZfU4dY1lWllzX7mPBI3,2017-04-21,global
3138309,67,Perfect,Ed Sheeran,1145860,https://open.spotify.com/track/0tgVpDi06FyKpA1z0VMD4v,2017-04-21,global
3138444,2,Shape of You,Ed Sheeran,5622571,https://open.spotify.com/track/7qiZfU4dY1lWllzX7mPBI3,2017-04-22,global
3138507,65,Perfect,Ed Sheeran,1084039,https://open.spotify.com/track/0tgVpDi06FyKpA1z0VMD4v,2017-04-22,global
3138644,2,Shape of You,Ed Sheeran,4876491,https://open.spotify.com/track/7qiZfU4dY1lWllzX7mPBI3,2017-04-23,global
3138702,60,Perfect,Ed Sheeran,1014651,https://open.spotify.com/track/0tgVpDi06FyKpA1z0VMD4v,2017-04-23,global
3138844,2,Shape of You,Ed Sheeran,5118118,https://open.spotify.com/track/7qiZfU4dY1lWllzX7mPBI3,2017-04-24,global
3138906,64,Perfect,Ed Sheeran,1092548,https://open.spotify.com/track/0tgVpDi06FyKpA1z0VMD4v,2017-04-24,global
3139044,2,Shape of You,Ed Sheeran,5213241,https://open.spotify.com/track/7qiZfU4dY1lWllzX7mPBI3,2017-04-25,global
3139109,67,Perfect,Ed Sheeran,1086999,https://open.spotify.com/track/0tgVpDi06FyKpA1z0VMD4v,2017-04-25,global
3139244,2,Shape of You,Ed Sheeran,5246686,https://open.spotify.com/track/7qiZfU4dY1lWllzX7mPBI3,2017-04-26,global
3139310,68,Perfect,Ed Sheeran,1066357,https://open.spotify.com/track/0tgVpDi06FyKpA1z0VMD4v,2017-04-26,global
3139444,2,Shape of You,Ed Sheeran,5116263,https://open.spotify.com/track/7qiZfU4dY1lWllzX7mPBI3,2017-04-27,global
3139509,67,Perfect,Ed Sheeran,1021965,https://open.spotify.com/track/0tgVpDi06FyKpA1z0VMD4v,2017-04-27,global
3139644,2,Shape of You,Ed Sheeran,5414394,https://open.spotify.com/track/7qiZfU4dY1lWllzX7mPBI3,2017-04-28,global
3139718,76,Perfect,Ed Sheeran,1018135,https://open.spotify.com/track/0tgVpDi06FyKpA1z0VMD4v,2017-04-28,global
3139844,2,Shape of You,Ed Sheeran,5423269,https://open.spotify.com/track/7qiZfU4dY1lWllzX7mPBI3,2017-04-29,global
3139918,76,Perfect,Ed Sheeran,964094,https://open.spotify.com/track/0tgVpDi06FyKpA1z0VMD4v,2017-04-29,global
3140044,2,Shape of You,Ed Sheeran,4881603,https://open.spotify.com/track/7qiZfU4dY1lWllzX7mPBI3,2017-04-30,global
3140113,71,Perfect,Ed Sheeran,911246,https://open.spotify.com/track/0tgVpDi06FyKpA1z0VMD4v,2017-04-30,global
3140245,3,Shape of You,Ed Sheeran,4801389,https://open.spotify.com/track/7qiZfU4dY1lWllzX7mPBI3,2017-05-01,global
3140309,67,Perfect,Ed Sheeran,962981,https://open.spotify.com/track/0tgVpDi06FyKpA1z0VMD4v,2017-05-01,global
3140445,3,Shape of You,Ed Sheeran,4857565,https://open.spotify.com/track/7qiZfU4dY1lWllzX7mPBI3,2017-05-02,global
3140510,68,Perfect,Ed Sheeran,984336,https://open.spotify.com/track/0tgVpDi06FyKpA1z0VMD4v,2017-05-02,global
3140645,3,Shape of You,Ed Sheeran,4948978,https://open.spotify.com/track/7qiZfU4dY1lWllzX7mPBI3,2017-05-03,global
3140713,71,Perfect,Ed Sheeran,985276,https://open.spotify.com/track/0tgVpDi06FyKpA1z0VMD4v,2017-05-03,global
3140845,3,Shape of You,Ed Sheeran,4972140,https://open.spotify.com/track/7qiZfU4dY1lWllzX7mPBI3,2017-05-04,global
3140912,70,Perfect,Ed Sheeran,1004861,https://open.spotify.com/track/0tgVpDi06FyKpA1z0VMD4v,2017-05-04,global
3141045,3,Shape of You,Ed Sheeran,5264790,https://open.spotify.com/track/7qiZfU4dY1lWllzX7mPBI3,2017-05-05,global
3141118,76,Perfect,Ed Sheeran,1010246,https://open.spotify.com/track/0tgVpDi06FyKpA1z0VMD4v,2017-05-05,global
3141245,3,Shape of You,Ed Sheeran,5282369,https://open.spotify.com/track/7qiZfU4dY1lWllzX7mPBI3,2017-05-06,global
3141316,74,Perfect,Ed Sheeran,963736,https://open.spotify.com/track/0tgVpDi06FyKpA1z0VMD4v,2017-05-06,global
3141445,3,Shape of You,Ed Sheeran,4588455,https://open.spotify.com/track/7qiZfU4dY1lWllzX7mPBI3,2017-05-07,global
3141510,68,Perfect,Ed Sheeran,918977,https://open.spotify.com/track/0tgVpDi06FyKpA1z0VMD4v,2017-05-07,global
3141645,3,Shape of You,Ed Sheeran,4746179,https://open.spotify.com/track/7qiZfU4dY1lWllzX7mPBI3,2017-05-08,global
3141710,68,Perfect,Ed Sheeran,984073,https://open.spotify.com/track/0tgVpDi06FyKpA1z0VMD4v,2017-05-08,global
3141845,3,Shape of You,Ed Sheeran,4855405,https://open.spotify.com/track/7qiZfU4dY1lWllzX7mPBI3,2017-05-09,global
3141911,69,Perfect,Ed Sheeran,995236,https://open.spotify.com/track/0tgVpDi06FyKpA1z0VMD4v,2017-05-09,global
3142045,3,Shape of You,Ed Sheeran,4842284,https://open.spotify.com/track/7qiZfU4dY1lWllzX7mPBI3,2017-05-10,global
3142110,68,Perfect,Ed Sheeran,989291,https://open.spotify.com/track/0tgVpDi06FyKpA1z0VMD4v,2017-05-10,global
3142245,3,Shape of You,Ed Sheeran,4784954,https://open.spotify.com/track/7qiZfU4dY1lWllzX7mPBI3,2017-05-11,global
3142310,68,Perfect,Ed Sheeran,987274,https://open.spotify.com/track/0tgVpDi06FyKpA1z0VMD4v,2017-05-11,global
3142445,3,Shape of You,Ed Sheeran,5057461,https://open.spotify.com/track/7qiZfU4dY1lWllzX7mPBI3,2017-05-12,global
3142525,83,Perfect,Ed Sheeran,990721,https://open.spotify.com/track/0tgVpDi06FyKpA1z0VMD4v,2017-05-12,global
3142645,3,Shape of You,Ed Sheeran,5043259,https://open.spotify.com/track/7qiZfU4dY1lWllzX7mPBI3,2017-05-13,global
3142722,80,Perfect,Ed Sheeran,923147,https://open.spotify.com/track/0tgVpDi06FyKpA1z0VMD4v,2017-05-13,global
3142845,3,Shape of You,Ed Sheeran,4339757,https://open.spotify.com/track/7qiZfU4dY1lWllzX7mPBI3,2017-05-14,global
3142913,71,Perfect,Ed Sheeran,873143,https://open.spotify.com/track/0tgVpDi06FyKpA1z0VMD4v,2017-05-14,global
3143045,3,Shape of You,Ed Sheeran,4544990,https://open.spotify.com/track/7qiZfU4dY1lWllzX7mPBI3,2017-05-15,global
3143114,72,Perfect,Ed Sheeran,940554,https://open.spotify.com/track/0tgVpDi06FyKpA1z0VMD4v,2017-05-15,global
3143245,3,Shape of You,Ed Sheeran,4691642,https://open.spotify.com/track/7qiZfU4dY1lWllzX7mPBI3,2017-05-16,global
3143315,73,Perfect,Ed Sheeran,949356,https://open.spotify.com/track/0tgVpDi06FyKpA1z0VMD4v,2017-05-16,global
3143445,3,Shape of You,Ed Sheeran,4647870,https://open.spotify.com/track/7qiZfU4dY1lWllzX7mPBI3,2017-05-17,global
3143518,76,Perfect,Ed Sheeran,918925,https://open.spotify.com/track/0tgVpDi06FyKpA1z0VMD4v,2017-05-17,global
3143645,3,Shape of You,Ed Sheeran,4585650,https://open.spotify.com/track/7qiZfU4dY1lWllzX7mPBI3,2017-05-18,global
3143725,83,Perfect,Ed Sheeran,908860,https://open.spotify.com/track/0tgVpDi06FyKpA1z0VMD4v,2017-05-18,global
3143845,3,Shape of You,Ed Sheeran,4848262,https://open.spotify.com/track/7qiZfU4dY1lWllzX7mPBI3,2017-05-19,global
3143926,84,Perfect,Ed Sheeran,911884,https://open.spotify.com/track/0tgVpDi06FyKpA1z0VMD4v,2017-05-19,global
3144045,3,Shape of You,Ed Sheeran,4798153,https://open.spotify.com/track/7qiZfU4dY1lWllzX7mPBI3,2017-05-20,global
3144132,90,Perfect,Ed Sheeran,852930,https://open.spotify.com/track/0tgVpDi06FyKpA1z0VMD4v,2017-05-20,global
3144245,3,Shape of You,Ed Sheeran,4053578,https://open.spotify.com/track/7qiZfU4dY1lWllzX7mPBI3,2017-05-21,global
3144324,82,Perfect,Ed Sheeran,803514,https://open.spotify.com/track/0tgVpDi06FyKpA1z0VMD4v,2017-05-21,global
3144445,3,Shape of You,Ed Sheeran,4157012,https://open.spotify.com/track/7qiZfU4dY1lWllzX7mPBI3,2017-05-22,global
3144525,83,Perfect,Ed Sheeran,867696,https://open.spotify.com/track/0tgVpDi06FyKpA1z0VMD4v,2017-05-22,global
3144645,3,Shape of You,Ed Sheeran,4245110,https://open.spotify.com/track/7qiZfU4dY1lWllzX7mPBI3,2017-05-23,global
3144727,85,Perfect,Ed Sheeran,873741,https://open.spotify.com/track/0tgVpDi06FyKpA1z0VMD4v,2017-05-23,global
3144845,3,Shape of You,Ed Sheeran,4348382,https://open.spotify.com/track/7qiZfU4dY1lWllzX7mPBI3,2017-05-24,global
3144926,84,Perfect,Ed Sheeran,873345,https://open.spotify.com/track/0tgVpDi06FyKpA1z0VMD4v,2017-05-24,global
3145045,3,Shape of You,Ed Sheeran,4376501,https://open.spotify.com/track/7qiZfU4dY1lWllzX7mPBI3,2017-05-25,global
3145128,86,Perfect,Ed Sheeran,871425,https://open.spotify.com/track/0tgVpDi06FyKpA1z0VMD4v,2017-05-25,global
3145245,3,Shape of You,Ed Sheeran,4646425,https://open.spotify.com/track/7qiZfU4dY1lWllzX7mPBI3,2017-05-26,global
3145339,97,Perfect,Ed Sheeran,861007,https://open.spotify.com/track/0tgVpDi06FyKpA1z0VMD4v,2017-05-26,global
3145445,3,Shape of You,Ed Sheeran,4488094,https://open.spotify.com/track/7qiZfU4dY1lWllzX7mPBI3,2017-05-27,global
3145541,99,Perfect,Ed Sheeran,777866,https://open.spotify.com/track/0tgVpDi06FyKpA1z0VMD4v,2017-05-27,global
3145645,3,Shape of You,Ed Sheeran,3902008,https://open.spotify.com/track/7qiZfU4dY1lWllzX7mPBI3,2017-05-28,global
3145734,92,Perfect,Ed Sheeran,736013,https://open.spotify.com/track/0tgVpDi06FyKpA1z0VMD4v,2017-05-28,global
3145845,3,Shape of You,Ed Sheeran,3987545,https://open.spotify.com/track/7qiZfU4dY1lWllzX7mPBI3,2017-05-29,global
3145928,86,Perfect,Ed Sheeran,794136,https://open.spotify.com/track/0tgVpDi06FyKpA1z0VMD4v,2017-05-29,global
3146045,3,Shape of You,Ed Sheeran,4138714,https://open.spotify.com/track/7qiZfU4dY1lWllzX7mPBI3,2017-06-01,global
3146137,95,Perfect,Ed Sheeran,804341,https://open.spotify.com/track/0tgVpDi06FyKpA1z0VMD4v,2017-06-01,global
3146245,3,Shape of You,Ed Sheeran,4194994,https://open.spotify.com/track/7qiZfU4dY1lWllzX7mPBI3,2017-06-03,global
3146349,107,Perfect,Ed Sheeran,730532,https://open.spotify.com/track/0tgVpDi06FyKpA1z0VMD4v,2017-06-03,global
3146445,3,Shape of You,Ed Sheeran,3649191,https://open.spotify.com/track/7qiZfU4dY1lWllzX7mPBI3,2017-06-04,global
3146542,100,Perfect,Ed Sheeran,686217,https://open.spotify.com/track/0tgVpDi06FyKpA1z0VMD4v,2017-06-04,global
3146645,3,Shape of You,Ed Sheeran,3785285,https://open.spotify.com/track/7qiZfU4dY1lWllzX7mPBI3,2017-06-05,global
3146736,94,Perfect,Ed Sheeran,758460,https://open.spotify.com/track/0tgVpDi06FyKpA1z0VMD4v,2017-06-05,global
3146845,3,Shape of You,Ed Sheeran,3870371,https://open.spotify.com/track/7qiZfU4dY1lWllzX7mPBI3,2017-06-06,global
3146936,94,Perfect,Ed Sheeran,772434,https://open.spotify.com/track/0tgVpDi06FyKpA1z0VMD4v,2017-06-06,global
3147045,3,Shape of You,Ed Sheeran,3999096,https://open.spotify.com/track/7qiZfU4dY1lWllzX7mPBI3,2017-06-07,global
3147128,86,Perfect,Ed Sheeran,843974,https://open.spotify.com/track/0tgVpDi06FyKpA1z0VMD4v,2017-06-07,global
3147245,3,Shape of You,Ed Sheeran,4023006,https://open.spotify.com/track/7qiZfU4dY1lWllzX7mPBI3,2017-06-08,global
3147328,86,Perfect,Ed Sheeran,846276,https://open.spotify.com/track/0tgVpDi06FyKpA1z0VMD4v,2017-06-08,global
3147445,3,Shape of You,Ed Sheeran,4177560,https://open.spotify.com/track/7qiZfU4dY1lWllzX7mPBI3,2017-06-09,global
3147535,93,Perfect,Ed Sheeran,815083,https://open.spotify.com/track/0tgVpDi06FyKpA1z0VMD4v,2017-06-09,global
3147645,3,Shape of You,Ed Sheeran,4150858,https://open.spotify.com/track/7qiZfU4dY1lWllzX7mPBI3,2017-06-10,global
3147739,97,Perfect,Ed Sheeran,750902,https://open.spotify.com/track/0tgVpDi06FyKpA1z0VMD4v,2017-06-10,global
3147846,4,Shape of You,Ed Sheeran,3607954,https://open.spotify.com/track/7qiZfU4dY1lWllzX7mPBI3,2017-06-11,global
3147934,92,Perfect,Ed Sheeran,709038,https://open.spotify.com/track/0tgVpDi06FyKpA1z0VMD4v,2017-06-11,global
3148046,4,Shape of You,Ed Sheeran,3739064,https://open.spotify.com/track/7qiZfU4dY1lWllzX7mPBI3,2017-06-12,global
3148131,89,Perfect,Ed Sheeran,773958,https://open.spotify.com/track/0tgVpDi06FyKpA1z0VMD4v,2017-06-12,global
3148246,4,Shape of You,Ed Sheeran,3828268,https://open.spotify.com/track/7qiZfU4dY1lWllzX7mPBI3,2017-06-13,global
3148334,92,Perfect,Ed Sheeran,768977,https://open.spotify.com/track/0tgVpDi06FyKpA1z0VMD4v,2017-06-13,global
3148446,4,Shape of You,Ed Sheeran,3898999,https://open.spotify.com/track/7qiZfU4dY1lWllzX7mPBI3,2017-06-14,global
3148534,92,Perfect,Ed Sheeran,768657,https://open.spotify.com/track/0tgVpDi06FyKpA1z0VMD4v,2017-06-14,global
3148646,4,Shape of You,Ed Sheeran,3897491,https://open.spotify.com/track/7qiZfU4dY1lWllzX7mPBI3,2017-06-15,global
3148736,94,Perfect,Ed Sheeran,762344,https://open.spotify.com/track/0tgVpDi06FyKpA1z0VMD4v,2017-06-15,global
3148846,4,Shape of You,Ed Sheeran,4057728,https://open.spotify.com/track/7qiZfU4dY1lWllzX7mPBI3,2017-06-16,global
3148950,108,Perfect,Ed Sheeran,760051,https://open.spotify.com/track/0tgVpDi06FyKpA1z0VMD4v,2017-06-16,global
3149046,4,Shape of You,Ed Sheeran,4065740,https://open.spotify.com/track/7qiZfU4dY1lWllzX7mPBI3,2017-06-17,global
3149145,103,Perfect,Ed Sheeran,732043,https://open.spotify.com/track/0tgVpDi06FyKpA1z0VMD4v,2017-06-17,global
3149246,4,Shape of You,Ed Sheeran,3534076,https://open.spotify.com/track/7qiZfU4dY1lWllzX7mPBI3,2017-06-18,global
3149336,94,Perfect,Ed Sheeran,693132,https://open.spotify.com/track/0tgVpDi06FyKpA1z0VMD4v,2017-06-18,global
3149447,5,Shape of You,Ed Sheeran,3614240,https://open.spotify.com/track/7qiZfU4dY1lWllzX7mPBI3,2017-06-19,global
3149539,97,Perfect,Ed Sheeran,730565,https://open.spotify.com/track/0tgVpDi06FyKpA1z0VMD4v,2017-06-19,global
3149647,5,Shape of You,Ed Sheeran,3664382,https://open.spotify.com/track/7qiZfU4dY1lWllzX7mPBI3,2017-06-20,global
3149741,99,Perfect,Ed Sheeran,733949,https://open.spotify.com/track/0tgVpDi06FyKpA1z0VMD4v,2017-06-20,global
3149847,5,Shape of You,Ed Sheeran,3663649,https://open.spotify.com/track/7qiZfU4dY1lWllzX7mPBI3,2017-06-21,global
3149940,98,Perfect,Ed Sheeran,726870,https://open.spotify.com/track/0tgVpDi06FyKpA1z0VMD4v,2017-06-21,global
3150047,5,Shape of You,Ed Sheeran,3710694,https://open.spotify.com/track/7qiZfU4dY1lWllzX7mPBI3,2017-06-22,global
3150141,99,Perfect,Ed Sheeran,734505,https://open.spotify.com/track/0tgVpDi06FyKpA1z0VMD4v,2017-06-22,global
3150247,5,Shape of You,Ed Sheeran,3898574,https://open.spotify.com/track/7qiZfU4dY1lWllzX7mPBI3,2017-06-23,global
3150351,109,Perfect,Ed Sheeran,720322,https://open.spotify.com/track/0tgVpDi06FyKpA1z0VMD4v,2017-06-23,global
3150447,5,Shape of You,Ed Sheeran,3720844,https://open.spotify.com/track/7qiZfU4dY1lWllzX7mPBI3,2017-06-24,global
3150551,109,Perfect,Ed Sheeran,674121,https://open.spotify.com/track/0tgVpDi06FyKpA1z0VMD4v,2017-06-24,global
3150647,5,Shape of You,Ed Sheeran,3235343,https://open.spotify.com/track/7qiZfU4dY1lWllzX7mPBI3,2017-06-25,global
3150742,100,Perfect,Ed Sheeran,642695,https://open.spotify.com/track/0tgVpDi06FyKpA1z0VMD4v,2017-06-25,global
3150847,5,Shape of You,Ed Sheeran,3452529,https://open.spotify.com/track/7qiZfU4dY1lWllzX7mPBI3,2017-06-26,global
3150941,99,Perfect,Ed Sheeran,721633,https://open.spotify.com/track/0tgVpDi06FyKpA1z0VMD4v,2017-06-26,global
3151047,5,Shape of You,Ed Sheeran,3481119,https://open.spotify.com/track/7qiZfU4dY1lWllzX7mPBI3,2017-06-27,global
3151142,100,Perfect,Ed Sheeran,711803,https://open.spotify.com/track/0tgVpDi06FyKpA1z0VMD4v,2017-06-27,global
3151247,5,Shape of You,Ed Sheeran,3477534,https://open.spotify.com/track/7qiZfU4dY1lWllzX7mPBI3,2017-06-28,global
3151342,100,Perfect,Ed Sheeran,720225,https://open.spotify.com/track/0tgVpDi06FyKpA1z0VMD4v,2017-06-28,global
3151447,5,Shape of You,Ed Sheeran,3492692,https://open.spotify.com/track/7qiZfU4dY1lWllzX7mPBI3,2017-06-29,global
3151542,100,Perfect,Ed Sheeran,721620,https://open.spotify.com/track/0tgVpDi06FyKpA1z0VMD4v,2017-06-29,global
3151647,5,Shape of You,Ed Sheeran,3712311,https://open.spotify.com/track/7qiZfU4dY1lWllzX7mPBI3,2017-06-30,global
3151749,107,Perfect,Ed Sheeran,729583,https://open.spotify.com/track/0tgVpDi06FyKpA1z0VMD4v,2017-06-30,global
3151847,5,Shape of You,Ed Sheeran,3646128,https://open.spotify.com/track/7qiZfU4dY1lWllzX7mPBI3,2017-07-01,global
3151949,107,Perfect,Ed Sheeran,684655,https://open.spotify.com/track/0tgVpDi06FyKpA1z0VMD4v,2017-07-01,global
3152047,5,Shape of You,Ed Sheeran,3148478,https://open.spotify.com/track/7qiZfU4dY1lWllzX7mPBI3,2017-07-02,global
3152139,97,Perfect,Ed Sheeran,640281,https://open.spotify.com/track/0tgVpDi06FyKpA1z0VMD4v,2017-07-02,global
3152247,5,Shape of You,Ed Sheeran,3332023,https://open.spotify.com/track/7qiZfU4dY1lWllzX7mPBI3,2017-07-03,global
3152337,95,Perfect,Ed Sheeran,694664,https://open.spotify.com/track/0tgVpDi06FyKpA1z0VMD4v,2017-07-03,global
3152447,5,Shape of You,Ed Sheeran,3475640,https://open.spotify.com/track/7qiZfU4dY1lWllzX7mPBI3,2017-07-04,global
3152541,99,Perfect,Ed Sheeran,683016,https://open.spotify.com/track/0tgVpDi06FyKpA1z0VMD4v,2017-07-04,global
3152647,5,Shape of You,Ed Sheeran,3447971,https://open.spotify.com/track/7qiZfU4dY1lWllzX7mPBI3,2017-07-05,global
3152740,98,Perfect,Ed Sheeran,697054,https://open.spotify.com/track/0tgVpDi06FyKpA1z0VMD4v,2017-07-05,global
3152847,5,Shape of You,Ed Sheeran,3434982,https://open.spotify.com/track/7qiZfU4dY1lWllzX7mPBI3,2017-07-06,global
3152939,97,Perfect,Ed Sheeran,712821,https://open.spotify.com/track/0tgVpDi06FyKpA1z0VMD4v,2017-07-06,global
3153047,5,Shape of You,Ed Sheeran,3585969,https://open.spotify.com/track/7qiZfU4dY1lWllzX7mPBI3,2017-07-07,global
3153143,101,Perfect,Ed Sheeran,715193,https://open.spotify.com/track/0tgVpDi06FyKpA1z0VMD4v,2017-07-07,global
3153247,5,Shape of You,Ed Sheeran,3544780,https://open.spotify.com/track/7qiZfU4dY1lWllzX7mPBI3,2017-07-08,global
3153341,99,Perfect,Ed Sheeran,705719,https://open.spotify.com/track/0tgVpDi06FyKpA1z0VMD4v,2017-07-08,global
3153447,5,Shape of You,Ed Sheeran,3098864,https://open.spotify.com/track/7qiZfU4dY1lWllzX7mPBI3,2017-07-09,global
3153536,94,Perfect,Ed Sheeran,656801,https://open.spotify.com/track/0tgVpDi06FyKpA1z0VMD4v,2017-07-09,global
3153647,5,Shape of You,Ed Sheeran,3275610,https://open.spotify.com/track/7qiZfU4dY1lWllzX7mPBI3,2017-07-10,global
3153736,94,Perfect,Ed Sheeran,711597,https://open.spotify.com/track/0tgVpDi06FyKpA1z0VMD4v,2017-07-10,global
3153848,6,Shape of You,Ed Sheeran,3298677,https://open.spotify.com/track/7qiZfU4dY1lWllzX7mPBI3,2017-07-11,global
3153939,97,Perfect,Ed Sheeran,713929,https://open.spotify.com/track/0tgVpDi06FyKpA1z0VMD4v,2017-07-11,global
3154048,6,Shape of You,Ed Sheeran,3305051,https://open.spotify.com/track/7qiZfU4dY1lWllzX7mPBI3,2017-07-12,global
3154138,96,Perfect,Ed Sheeran,718122,https://open.spotify.com/track/0tgVpDi06FyKpA1z0VMD4v,2017-07-12,global
3154248,6,Shape of You,Ed Sheeran,3337841,https://open.spotify.com/track/7qiZfU4dY1lWllzX7mPBI3,2017-07-13,global
3154342,100,Perfect,Ed Sheeran,716229,https://open.spotify.com/track/0tgVpDi06FyKpA1z0VMD4v,2017-07-13,global
3154449,7,Shape of You,Ed Sheeran,3439876,https://open.spotify.com/track/7qiZfU4dY1lWllzX7mPBI3,2017-07-14,global
3154549,107,Perfect,Ed Sheeran,716823,https://open.spotify.com/track/0tgVpDi06FyKpA1z0VMD4v,2017-07-14,global
3154649,7,Shape of You,Ed Sheeran,3340466,https://open.spotify.com/track/7qiZfU4dY1lWllzX7mPBI3,2017-07-15,global
3154750,108,Perfect,Ed Sheeran,677397,https://open.spotify.com/track/0tgVpDi06FyKpA1z0VMD4v,2017-07-15,global
3154849,7,Shape of You,Ed Sheeran,2892714,https://open.spotify.com/track/7qiZfU4dY1lWllzX7mPBI3,2017-07-16,global
3154939,97,Perfect,Ed Sheeran,642777,https://open.spotify.com/track/0tgVpDi06FyKpA1z0VMD4v,2017-07-16,global
3155050,8,Shape of You,Ed Sheeran,3137790,https://open.spotify.com/track/7qiZfU4dY1lWllzX7mPBI3,2017-07-17,global
3155136,94,Perfect,Ed Sheeran,717687,https://open.spotify.com/track/0tgVpDi06FyKpA1z0VMD4v,2017-07-17,global
3155250,8,Shape of You,Ed Sheeran,3168762,https://open.spotify.com/track/7qiZfU4dY1lWllzX7mPBI3,2017-07-18,global
3155336,94,Perfect,Ed Sheeran,728012,https://open.spotify.com/track/0tgVpDi06FyKpA1z0VMD4v,2017-07-18,global
3155450,8,Shape of You,Ed Sheeran,3163360,https://open.spotify.com/track/7qiZfU4dY1lWllzX7mPBI3,2017-07-19,global
3155535,93,Perfect,Ed Sheeran,726545,https://open.spotify.com/track/0tgVpDi06FyKpA1z0VMD4v,2017-07-19,global
3155650,8,Shape of You,Ed Sheeran,3175257,https://open.spotify.com/track/7qiZfU4dY1lWllzX7mPBI3,2017-07-20,global
3155742,100,Perfect,Ed Sheeran,720987,https://open.spotify.com/track/0tgVpDi06FyKpA1z0VMD4v,2017-07-20,global
3155851,9,Shape of You,Ed Sheeran,3294902,https://open.spotify.com/track/7qiZfU4dY1lWllzX7mPBI3,2017-07-21,global
3155978,136,Perfect,Ed Sheeran,711187,https://open.spotify.com/track/0tgVpDi06FyKpA1z0VMD4v,2017-07-21,global
3156049,7,Shape of You,Ed Sheeran,3212093,https://open.spotify.com/track/7qiZfU4dY1lWllzX7mPBI3,2017-07-22,global
3156158,116,Perfect,Ed Sheeran,668740,https://open.spotify.com/track/0tgVpDi06FyKpA1z0VMD4v,2017-07-22,global
3156249,7,Shape of You,Ed Sheeran,2799119,https://open.spotify.com/track/7qiZfU4dY1lWllzX7mPBI3,2017-07-23,global
3156344,102,Perfect,Ed Sheeran,632176,https://open.spotify.com/track/0tgVpDi06FyKpA1z0VMD4v,2017-07-23,global
3156450,8,Shape of You,Ed Sheeran,2988084,https://open.spotify.com/track/7qiZfU4dY1lWllzX7mPBI3,2017-07-24,global
3156541,99,Perfect,Ed Sheeran,695369,https://open.spotify.com/track/0tgVpDi06FyKpA1z0VMD4v,2017-07-24,global
3156650,8,Shape of You,Ed Sheeran,3044695,https://open.spotify.com/track/7qiZfU4dY1lWllzX7mPBI3,2017-07-25,global
3156741,99,Perfect,Ed Sheeran,699967,https://open.spotify.com/track/0tgVpDi06FyKpA1z0VMD4v,2017-07-25,global
3156850,8,Shape of You,Ed Sheeran,3020577,https://open.spotify.com/track/7qiZfU4dY1lWllzX7mPBI3,2017-07-26,global
3156943,101,Perfect,Ed Sheeran,701323,https://open.spotify.com/track/0tgVpDi06FyKpA1z0VMD4v,2017-07-26,global
3157050,8,Shape of You,Ed Sheeran,3070908,https://open.spotify.com/track/7qiZfU4dY1lWllzX7mPBI3,2017-07-27,global
3157143,101,Perfect,Ed Sheeran,714279,https://open.spotify.com/track/0tgVpDi06FyKpA1z0VMD4v,2017-07-27,global
3157250,8,Shape of You,Ed Sheeran,3198984,https://open.spotify.com/track/7qiZfU4dY1lWllzX7mPBI3,2017-07-28,global
3157349,107,Perfect,Ed Sheeran,711789,https://open.spotify.com/track/0tgVpDi06FyKpA1z0VMD4v,2017-07-28,global
3157450,8,Shape of You,Ed Sheeran,3112246,https://open.spotify.com/track/7qiZfU4dY1lWllzX7mPBI3,2017-07-29,global
3157548,106,Perfect,Ed Sheeran,663613,https://open.spotify.com/track/0tgVpDi06FyKpA1z0VMD4v,2017-07-29,global
3157650,8,Shape of You,Ed Sheeran,2721630,https://open.spotify.com/track/7qiZfU4dY1lWllzX7mPBI3,2017-07-30,global
3157744,102,Perfect,Ed Sheeran,629882,https://open.spotify.com/track/0tgVpDi06FyKpA1z0VMD4v,2017-07-30,global
3157850,8,Shape of You,Ed Sheeran,2906335,https://open.spotify.com/track/7qiZfU4dY1lWllzX7mPBI3,2017-07-31,global
3157944,102,Perfect,Ed Sheeran,685407,https://open.spotify.com/track/0tgVpDi06FyKpA1z0VMD4v,2017-07-31,global
3158050,8,Shape of You,Ed Sheeran,2921341,https://open.spotify.com/track/7qiZfU4dY1lWllzX7mPBI3,2017-08-01,global
3158141,99,Perfect,Ed Sheeran,691416,https://open.spotify.com/track/0tgVpDi06FyKpA1z0VMD4v,2017-08-01,global
3158251,9,Shape of You,Ed Sheeran,2910592,https://open.spotify.com/track/7qiZfU4dY1lWllzX7mPBI3,2017-08-02,global
3158341,99,Perfect,Ed Sheeran,694846,https://open.spotify.com/track/0tgVpDi06FyKpA1z0VMD4v,2017-08-02,global
3158451,9,Shape of You,Ed Sheeran,2909548,https://open.spotify.com/track/7qiZfU4dY1lWllzX7mPBI3,2017-08-03,global
3158542,100,Perfect,Ed Sheeran,697197,https://open.spotify.com/track/0tgVpDi06FyKpA1z0VMD4v,2017-08-03,global
3158650,8,Shape of You,Ed Sheeran,3006373,https://open.spotify.com/track/7qiZfU4dY1lWllzX7mPBI3,2017-08-04,global
3158749,107,Perfect,Ed Sheeran,696199,https://open.spotify.com/track/0tgVpDi06FyKpA1z0VMD4v,2017-08-04,global
3158850,8,Shape of You,Ed Sheeran,2928977,https://open.spotify.com/track/7qiZfU4dY1lWllzX7mPBI3,2017-08-05,global
3158951,109,Perfect,Ed Sheeran,659648,https://open.spotify.com/track/0tgVpDi06FyKpA1z0VMD4v,2017-08-05,global
3159050,8,Shape of You,Ed Sheeran,2582922,https://open.spotify.com/track/7qiZfU4dY1lWllzX7mPBI3,2017-08-06,global
3159141,99,Perfect,Ed Sheeran,629572,https://open.spotify.com/track/0tgVpDi06FyKpA1z0VMD4v,2017-08-06,global
3159251,9,Shape of You,Ed Sheeran,2735510,https://open.spotify.com/track/7qiZfU4dY1lWllzX7mPBI3,2017-08-07,global
3159337,95,Perfect,Ed Sheeran,688509,https://open.spotify.com/track/0tgVpDi06FyKpA1z0VMD4v,2017-08-07,global
3159451,9,Shape of You,Ed Sheeran,2754675,https://open.spotify.com/track/7qiZfU4dY1lWllzX7mPBI3,2017-08-08,global
3159539,97,Perfect,Ed Sheeran,695607,https://open.spotify.com/track/0tgVpDi06FyKpA1z0VMD4v,2017-08-08,global
3159651,9,Shape of You,Ed Sheeran,2791611,https://open.spotify.com/track/7qiZfU4dY1lWllzX7mPBI3,2017-08-09,global
3159741,99,Perfect,Ed Sheeran,698576,https://open.spotify.com/track/0tgVpDi06FyKpA1z0VMD4v,2017-08-09,global
3159851,9,Shape of You,Ed Sheeran,2808421,https://open.spotify.com/track/7qiZfU4dY1lWllzX7mPBI3,2017-08-10,global
3159942,100,Perfect,Ed Sheeran,700355,https://open.spotify.com/track/0tgVpDi06FyKpA1z0VMD4v,2017-08-10,global
3160051,9,Shape of You,Ed Sheeran,2914016,https://open.spotify.com/track/7qiZfU4dY1lWllzX7mPBI3,2017-08-11,global
3160154,112,Perfect,Ed Sheeran,709827,https://open.spotify.com/track/0tgVpDi06FyKpA1z0VMD4v,2017-08-11,global
3160250,8,Shape of You,Ed Sheeran,2849496,https://open.spotify.com/track/7qiZfU4dY1lWllzX7mPBI3,2017-08-12,global
3160356,114,Perfect,Ed Sheeran,674397,https://open.spotify.com/track/0tgVpDi06FyKpA1z0VMD4v,2017-08-12,global
3160450,8,Shape of You,Ed Sheeran,2529879,https://open.spotify.com/track/7qiZfU4dY1lWllzX7mPBI3,2017-08-13,global
3160537,95,Perfect,Ed Sheeran,650679,https://open.spotify.com/track/0tgVpDi06FyKpA1z0VMD4v,2017-08-13,global
3160650,8,Shape of You,Ed Sheeran,2680952,https://open.spotify.com/track/7qiZfU4dY1lWllzX7mPBI3,2017-08-14,global
3160733,91,Perfect,Ed Sheeran,712817,https://open.spotify.com/track/0tgVpDi06FyKpA1z0VMD4v,2017-08-14,global
3160851,9,Shape of You,Ed Sheeran,2665444,https://open.spotify.com/track/7qiZfU4dY1lWllzX7mPBI3,2017-08-15,global
3160935,93,Perfect,Ed Sheeran,715218,https://open.spotify.com/track/0tgVpDi06FyKpA1z0VMD4v,2017-08-15,global
3161051,9,Shape of You,Ed Sheeran,2673073,https://open.spotify.com/track/7qiZfU4dY1lWllzX7mPBI3,2017-08-16,global
3161136,94,Perfect,Ed Sheeran,727816,https://open.spotify.com/track/0tgVpDi06FyKpA1z0VMD4v,2017-08-16,global
3161251,9,Shape of You,Ed Sheeran,2681053,https://open.spotify.com/track/7qiZfU4dY1lWllzX7mPBI3,2017-08-17,global
3161337,95,Perfect,Ed Sheeran,727744,https://open.spotify.com/track/0tgVpDi06FyKpA1z0VMD4v,2017-08-17,global
3161451,9,Shape of You,Ed Sheeran,2809309,https://open.spotify.com/track/7qiZfU4dY1lWllzX7mPBI3,2017-08-18,global
3161548,106,Perfect,Ed Sheeran,724272,https://open.spotify.com/track/0tgVpDi06FyKpA1z0VMD4v,2017-08-18,global
3161651,9,Shape of You,Ed Sheeran,2765681,https://open.spotify.com/track/7qiZfU4dY1lWllzX7mPBI3,2017-08-19,global
3161752,110,Perfect,Ed Sheeran,678558,https://open.spotify.com/track/0tgVpDi06FyKpA1z0VMD4v,2017-08-19,global
3161850,8,Shape of You,Ed Sheeran,2443479,https://open.spotify.com/track/7qiZfU4dY1lWllzX7mPBI3,2017-08-20,global
3161935,93,Perfect,Ed Sheeran,648440,https://open.spotify.com/track/0tgVpDi06FyKpA1z0VMD4v,2017-08-20,global
3162052,10,Shape of You,Ed Sheeran,2530517,https://open.spotify.com/track/7qiZfU4dY1lWllzX7mPBI3,2017-08-21,global
3162136,94,Perfect,Ed Sheeran,686545,https://open.spotify.com/track/0tgVpDi06FyKpA1z0VMD4v,2017-08-21,global
3162252,10,Shape of You,Ed Sheeran,2601178,https://open.spotify.com/track/7qiZfU4dY1lWllzX7mPBI3,2017-08-22,global
3162340,98,Perfect,Ed Sheeran,706475,https://open.spotify.com/track/0tgVpDi06FyKpA1z0VMD4v,2017-08-22,global
3162452,10,Shape of You,Ed Sheeran,2611610,https://open.spotify.com/track/7qiZfU4dY1lWllzX7mPBI3,2017-08-23,global
3162541,99,Perfect,Ed Sheeran,709760,https://open.spotify.com/track/0tgVpDi06FyKpA1z0VMD4v,2017-08-23,global
3162653,11,Shape of You,Ed Sheeran,2602652,https://open.spotify.com/track/7qiZfU4dY1lWllzX7mPBI3,2017-08-24,global
3162743,101,Perfect,Ed Sheeran,711421,https://open.spotify.com/track/0tgVpDi06FyKpA1z0VMD4v,2017-08-24,global
3162855,13,Shape of You,Ed Sheeran,2691728,https://open.spotify.com/track/7qiZfU4dY1lWllzX7mPBI3,2017-08-25,global
3162968,126,Perfect,Ed Sheeran,723209,https://open.spotify.com/track/0tgVpDi06FyKpA1z0VMD4v,2017-08-25,global
3163052,10,Shape of You,Ed Sheeran,2706058,https://open.spotify.com/track/7qiZfU4dY1lWllzX7mPBI3,2017-08-26,global
3163169,127,Perfect,Ed Sheeran,687702,https://open.spotify.com/track/0tgVpDi06FyKpA1z0VMD4v,2017-08-26,global
3163252,10,Shape of You,Ed Sheeran,2327940,https://open.spotify.com/track/7qiZfU4dY1lWllzX7mPBI3,2017-08-27,global
3163349,107,Perfect,Ed Sheeran,655865,https://open.spotify.com/track/0tgVpDi06FyKpA1z0VMD4v,2017-08-27,global
3163452,10,Shape of You,Ed Sheeran,2532493,https://open.spotify.com/track/7qiZfU4dY1lWllzX7mPBI3,2017-08-28,global
3163545,103,Perfect,Ed Sheeran,762685,https://open.spotify.com/track/0tgVpDi06FyKpA1z0VMD4v,2017-08-28,global
3163654,12,Shape of You,Ed Sheeran,2540444,https://open.spotify.com/track/7qiZfU4dY1lWllzX7mPBI3,2017-08-29,global
3163744,102,Perfect,Ed Sheeran,743883,https://open.spotify.com/track/0tgVpDi06FyKpA1z0VMD4v,2017-08-29,global
3163855,13,Shape of You,Ed Sheeran,2542709,https://open.spotify.com/track/7qiZfU4dY1lWllzX7mPBI3,2017-08-30,global
3163943,101,Perfect,Ed Sheeran,753143,https://open.spotify.com/track/0tgVpDi06FyKpA1z0VMD4v,2017-08-30,global
3164055,13,Shape of You,Ed Sheeran,2508263,https://open.spotify.com/track/7qiZfU4dY1lWllzX7mPBI3,2017-08-31,global
3164146,104,Perfect,Ed Sheeran,732784,https://open.spotify.com/track/0tgVpDi06FyKpA1z0VMD4v,2017-08-31,global
3164255,13,Shape of You,Ed Sheeran,2611905,https://open.spotify.com/track/7qiZfU4dY1lWllzX7mPBI3,2017-09-01,global
3164354,112,Perfect,Ed Sheeran,722636,https://open.spotify.com/track/0tgVpDi06FyKpA1z0VMD4v,2017-09-01,global
3164452,10,Shape of You,Ed Sheeran,2599464,https://open.spotify.com/track/7qiZfU4dY1lWllzX7mPBI3,2017-09-02,global
3164559,117,Perfect,Ed Sheeran,675904,https://open.spotify.com/track/0tgVpDi06FyKpA1z0VMD4v,2017-09-02,global
3164656,14,Shape of You,Ed Sheeran,2289764,https://open.spotify.com/track/7qiZfU4dY1lWllzX7mPBI3,2017-09-03,global
3164745,103,Perfect,Ed Sheeran,657459,https://open.spotify.com/track/0tgVpDi06FyKpA1z0VMD4v,2017-09-03,global
3164858,16,Shape of You,Ed Sheeran,2360376,https://open.spotify.com/track/7qiZfU4dY1lWllzX7mPBI3,2017-09-04,global
3164943,101,Perfect,Ed Sheeran,703659,https://open.spotify.com/track/0tgVpDi06FyKpA1z0VMD4v,2017-09-04,global
3165058,16,Shape of You,Ed Sheeran,2353268,https://open.spotify.com/track/7qiZfU4dY1lWllzX7mPBI3,2017-09-05,global
3165143,101,Perfect,Ed Sheeran,718335,https://open.spotify.com/track/0tgVpDi06FyKpA1z0VMD4v,2017-09-05,global
3165257,15,Shape of You,Ed Sheeran,2386067,https://open.spotify.com/track/7qiZfU4dY1lWllzX7mPBI3,2017-09-06,global
3165344,102,Perfect,Ed Sheeran,723596,https://open.spotify.com/track/0tgVpDi06FyKpA1z0VMD4v,2017-09-06,global
3165456,14,Shape of You,Ed Sheeran,2418687,https://open.spotify.com/track/7qiZfU4dY1lWllzX7mPBI3,2017-09-07,global
3165541,99,Perfect,Ed Sheeran,737130,https://open.spotify.com/track/0tgVpDi06FyKpA1z0VMD4v,2017-09-07,global
3165658,16,Shape of You,Ed Sheeran,2460404,https://open.spotify.com/track/7qiZfU4dY1lWllzX7mPBI3,2017-09-08,global
3165747,105,Perfect,Ed Sheeran,745746,https://open.spotify.com/track/0tgVpDi06FyKpA1z0VMD4v,2017-09-08,global
3165858,16,Shape of You,Ed Sheeran,2411664,https://open.spotify.com/track/7qiZfU4dY1lWllzX7mPBI3,2017-09-09,global
3165949,107,Perfect,Ed Sheeran,698419,https://open.spotify.com/track/0tgVpDi06FyKpA1z0VMD4v,2017-09-09,global
3166058,16,Shape of You,Ed Sheeran,2105791,https://open.spotify.com/track/7qiZfU4dY1lWllzX7mPBI3,2017-09-10,global
3166135,93,Perfect,Ed Sheeran,683850,https://open.spotify.com/track/0tgVpDi06FyKpA1z0VMD4v,2017-09-10,global
3166260,18,Shape of You,Ed Sheeran,2186963,https://open.spotify.com/track/7qiZfU4dY1lWllzX7mPBI3,2017-09-11,global
3166336,94,Perfect,Ed Sheeran,740043,https://open.spotify.com/track/0tgVpDi06FyKpA1z0VMD4v,2017-09-11,global
3166460,18,Shape of You,Ed Sheeran,2230053,https://open.spotify.com/track/7qiZfU4dY1lWllzX7mPBI3,2017-09-12,global
3166535,93,Perfect,Ed Sheeran,761161,https://open.spotify.com/track/0tgVpDi06FyKpA1z0VMD4v,2017-09-12,global
3166660,18,Shape of You,Ed Sheeran,2248885,https://open.spotify.com/track/7qiZfU4dY1lWllzX7mPBI3,2017-09-13,global
3166734,92,Perfect,Ed Sheeran,784926,https://open.spotify.com/track/0tgVpDi06FyKpA1z0VMD4v,2017-09-13,global
3166858,16,Shape of You,Ed Sheeran,2319076,https://open.spotify.com/track/7qiZfU4dY1lWllzX7mPBI3,2017-09-14,global
3166936,94,Perfect,Ed Sheeran,791555,https://open.spotify.com/track/0tgVpDi06FyKpA1z0VMD4v,2017-09-14,global
3167058,16,Shape of You,Ed Sheeran,2433790,https://open.spotify.com/track/7qiZfU4dY1lWllzX7mPBI3,2017-09-15,global
3167142,100,Perfect,Ed Sheeran,797734,https://open.spotify.com/track/0tgVpDi06FyKpA1z0VMD4v,2017-09-15,global
3167257,15,Shape of You,Ed Sheeran,2411977,https://open.spotify.com/track/7qiZfU4dY1lWllzX7mPBI3,2017-09-16,global
3167340,98,Perfect,Ed Sheeran,752876,https://open.spotify.com/track/0tgVpDi06FyKpA1z0VMD4v,2017-09-16,global
3167457,15,Shape of You,Ed Sheeran,2116096,https://open.spotify.com/track/7qiZfU4dY1lWllzX7mPBI3,2017-09-17,global
3167525,83,Perfect,Ed Sheeran,751934,https://open.spotify.com/track/0tgVpDi06FyKpA1z0VMD4v,2017-09-17,global
3167657,15,Shape of You,Ed Sheeran,2224996,https://open.spotify.com/track/7qiZfU4dY1lWllzX7mPBI3,2017-09-18,global
3167726,84,Perfect,Ed Sheeran,819970,https://open.spotify.com/track/0tgVpDi06FyKpA1z0VMD4v,2017-09-18,global
3167858,16,Shape of You,Ed Sheeran,2229525,https://open.spotify.com/track/7qiZfU4dY1lWllzX7mPBI3,2017-09-19,global
3167924,82,Perfect,Ed Sheeran,834879,https://open.spotify.com/track/0tgVpDi06FyKpA1z0VMD4v,2017-09-19,global
3168058,16,Shape of You,Ed Sheeran,2229975,https://open.spotify.com/track/7qiZfU4dY1lWllzX7mPBI3,2017-09-20,global
3168116,74,Perfect,Ed Sheeran,906337,https://open.spotify.com/track/0tgVpDi06FyKpA1z0VMD4v,2017-09-20,global
3168258,16,Shape of You,Ed Sheeran,2261150,https://open.spotify.com/track/7qiZfU4dY1lWllzX7mPBI3,2017-09-21,global
3168303,61,Perfect,Ed Sheeran,1076130,https://open.spotify.com/track/0tgVpDi06FyKpA1z0VMD4v,2017-09-21,global
3168458,16,Shape of You,Ed Sheeran,2406844,https://open.spotify.com/track/7qiZfU4dY1lWllzX7mPBI3,2017-09-22,global
3168494,52,Perfect,Ed Sheeran,1251917,https://open.spotify.com/track/0tgVpDi06FyKpA1z0VMD4v,2017-09-22,global
3168658,16,Shape of You,Ed Sheeran,2412286,https://open.spotify.com/track/7qiZfU4dY1lWllzX7mPBI3,2017-09-23,global
3168689,47,Perfect,Ed Sheeran,1329528,https://open.spotify.com/track/0tgVpDi06FyKpA1z0VMD4v,2017-09-23,global
3168858,16,Shape of You,Ed Sheeran,2093832,https://open.spotify.com/track/7qiZfU4dY1lWllzX7mPBI3,2017-09-24,global
3168880,38,Perfect,Ed Sheeran,1405635,https://open.spotify.com/track/0tgVpDi06FyKpA1z0VMD4v,2017-09-24,global
3169058,16,Shape of You,Ed Sheeran,2156787,https://open.spotify.com/track/7qiZfU4dY1lWllzX7mPBI3,2017-09-25,global
3169073,31,Perfect,Ed Sheeran,1700120,https://open.spotify.com/track/0tgVpDi06FyKpA1z0VMD4v,2017-09-25,global
3169258,16,Shape of You,Ed Sheeran,2205856,https://open.spotify.com/track/7qiZfU4dY1lWllzX7mPBI3,2017-09-26,global
3169269,27,Perfect,Ed Sheeran,1794300,https://open.spotify.com/track/0tgVpDi06FyKpA1z0VMD4v,2017-09-26,global
3169459,17,Shape of You,Ed Sheeran,2222119,https://open.spotify.com/track/7qiZfU4dY1lWllzX7mPBI3,2017-09-27,global
3169468,26,Perfect,Ed Sheeran,1883349,https://open.spotify.com/track/0tgVpDi06FyKpA1z0VMD4v,2017-09-27,global
3169659,17,Shape of You,Ed Sheeran,2208953,https://open.spotify.com/track/7qiZfU4dY1lWllzX7mPBI3,2017-09-28,global
3169668,26,Perfect,Ed Sheeran,1946210,https://open.spotify.com/track/0tgVpDi06FyKpA1z0VMD4v,2017-09-28,global
3169860,18,Shape of You,Ed Sheeran,2311179,https://open.spotify.com/track/7qiZfU4dY1lWllzX7mPBI3,2017-09-29,global
3169865,23,Perfect,Ed Sheeran,2020393,https://open.spotify.com/track/0tgVpDi06FyKpA1z0VMD4v,2017-09-29,global
3170057,15,Shape of You,Ed Sheeran,2269661,https://open.spotify.com/track/7qiZfU4dY1lWllzX7mPBI3,2017-09-30,global
3170064,22,Perfect,Ed Sheeran,1954741,https://open.spotify.com/track/0tgVpDi06FyKpA1z0VMD4v,2017-09-30,global
3170260,18,Shape of You,Ed Sheeran,1960414,https://open.spotify.com/track/7qiZfU4dY1lWllzX7mPBI3,2017-10-01,global
3170262,20,Perfect,Ed Sheeran,1874446,https://open.spotify.com/track/0tgVpDi06FyKpA1z0VMD4v,2017-10-01,global
3170456,14,Perfect,Ed Sheeran,2175544,https://open.spotify.com/track/0tgVpDi06FyKpA1z0VMD4v,2017-10-02,global
3170459,17,Shape of You,Ed Sheeran,2069436,https://open.spotify.com/track/7qiZfU4dY1lWllzX7mPBI3,2017-10-02,global
3170656,14,Perfect,Ed Sheeran,2346369,https://open.spotify.com/track/0tgVpDi06FyKpA1z0VMD4v,2017-10-03,global
3170661,19,Shape of You,Ed Sheeran,2124167,https://open.spotify.com/track/7qiZfU4dY1lWllzX7mPBI3,2017-10-03,global
3170855,13,Perfect,Ed Sheeran,2424597,https://open.spotify.com/track/0tgVpDi06FyKpA1z0VMD4v,2017-10-04,global
3170861,19,Shape of You,Ed Sheeran,2140690,https://open.spotify.com/track/7qiZfU4dY1lWllzX7mPBI3,2017-10-04,global
3171054,12,Perfect,Ed Sheeran,2418941,https://open.spotify.com/track/0tgVpDi06FyKpA1z0VMD4v,2017-10-05,global
3171061,19,Shape of You,Ed Sheeran,2127687,https://open.spotify.com/track/7qiZfU4dY1lWllzX7mPBI3,2017-10-05,global
3171254,12,Perfect,Ed Sheeran,2482667,https://open.spotify.com/track/0tgVpDi06FyKpA1z0VMD4v,2017-10-06,global
3171260,18,Shape of You,Ed Sheeran,2262199,https://open.spotify.com/track/7qiZfU4dY1lWllzX7mPBI3,2017-10-06,global
3171454,12,Perfect,Ed Sheeran,2395168,https://open.spotify.com/track/0tgVpDi06FyKpA1z0VMD4v,2017-10-07,global
3171458,16,Shape of You,Ed Sheeran,2253397,https://open.spotify.com/track/7qiZfU4dY1lWllzX7mPBI3,2017-10-07,global
3171652,10,Perfect,Ed Sheeran,2302353,https://open.spotify.com/track/0tgVpDi06FyKpA1z0VMD4v,2017-10-08,global
3171656,14,Shape of You,Ed Sheeran,1961612,https://open.spotify.com/track/7qiZfU4dY1lWllzX7mPBI3,2017-10-08,global
3171851,9,Perfect,Ed Sheeran,2542919,https://open.spotify.com/track/0tgVpDi06FyKpA1z0VMD4v,2017-10-09,global
3171861,19,Shape of You,Ed Sheeran,2049192,https://open.spotify.com/track/7qiZfU4dY1lWllzX7mPBI3,2017-10-09,global
3172051,9,Perfect,Ed Sheeran,2613846,https://open.spotify.com/track/0tgVpDi06FyKpA1z0VMD4v,2017-10-10,global
3172061,19,Shape of You,Ed Sheeran,2056409,https://open.spotify.com/track/7qiZfU4dY1lWllzX7mPBI3,2017-10-10,global
3172251,9,Perfect,Ed Sheeran,2650448,https://open.spotify.com/track/0tgVpDi06FyKpA1z0VMD4v,2017-10-11,global
3172261,19,Shape of You,Ed Sheeran,2071379,https://open.spotify.com/track/7qiZfU4dY1lWllzX7mPBI3,2017-10-11,global
3172451,9,Perfect,Ed Sheeran,2661329,https://open.spotify.com/track/0tgVpDi06FyKpA1z0VMD4v,2017-10-12,global
3172460,18,Shape of You,Ed Sheeran,2102062,https://open.spotify.com/track/7qiZfU4dY1lWllzX7mPBI3,2017-10-12,global
3172651,9,Perfect,Ed Sheeran,2715772,https://open.spotify.com/track/0tgVpDi06FyKpA1z0VMD4v,2017-10-13,global
3172660,18,Shape of You,Ed Sheeran,2224290,https://open.spotify.com/track/7qiZfU4dY1lWllzX7mPBI3,2017-10-13,global
3172851,9,Perfect,Ed Sheeran,2699841,https://open.spotify.com/track/0tgVpDi06FyKpA1z0VMD4v,2017-10-14,global
3172859,17,Shape of You,Ed Sheeran,2208394,https://open.spotify.com/track/7qiZfU4dY1lWllzX7mPBI3,2017-10-14,global
3173051,9,Perfect,Ed Sheeran,2419942,https://open.spotify.com/track/0tgVpDi06FyKpA1z0VMD4v,2017-10-15,global
3173058,16,Shape of You,Ed Sheeran,1944011,https://open.spotify.com/track/7qiZfU4dY1lWllzX7mPBI3,2017-10-15,global
3173250,8,Perfect,Ed Sheeran,2729788,https://open.spotify.com/track/0tgVpDi06FyKpA1z0VMD4v,2017-10-16,global
3173261,19,Shape of You,Ed Sheeran,2012978,https://open.spotify.com/track/7qiZfU4dY1lWllzX7mPBI3,2017-10-16,global
3173450,8,Perfect,Ed Sheeran,2826886,https://open.spotify.com/track/0tgVpDi06FyKpA1z0VMD4v,2017-10-17,global
3173462,20,Shape of You,Ed Sheeran,2029376,https://open.spotify.com/track/7qiZfU4dY1lWllzX7mPBI3,2017-10-17,global
3173650,8,Perfect,Ed Sheeran,2864860,https://open.spotify.com/track/0tgVpDi06FyKpA1z0VMD4v,2017-10-18,global
3173661,19,Shape of You,Ed Sheeran,2054871,https://open.spotify.com/track/7qiZfU4dY1lWllzX7mPBI3,2017-10-18,global
3173850,8,Perfect,Ed Sheeran,2874854,https://open.spotify.com/track/0tgVpDi06FyKpA1z0VMD4v,2017-10-19,global
3173862,20,Shape of You,Ed Sheeran,2067476,https://open.spotify.com/track/7qiZfU4dY1lWllzX7mPBI3,2017-10-19,global
3174051,9,Perfect,Ed Sheeran,2933055,https://open.spotify.com/track/0tgVpDi06FyKpA1z0VMD4v,2017-10-20,global
3174061,19,Shape of You,Ed Sheeran,2192560,https://open.spotify.com/track/7qiZfU4dY1lWllzX7mPBI3,2017-10-20,global
3174250,8,Perfect,Ed Sheeran,2724906,https://open.spotify.com/track/0tgVpDi06FyKpA1z0VMD4v,2017-10-21,global
3174258,16,Shape of You,Ed Sheeran,2162746,https://open.spotify.com/track/7qiZfU4dY1lWllzX7mPBI3,2017-10-21,global
3174450,8,Perfect,Ed Sheeran,2519437,https://open.spotify.com/track/0tgVpDi06FyKpA1z0VMD4v,2017-10-22,global
3174457,15,Shape of You,Ed Sheeran,1885171,https://open.spotify.com/track/7qiZfU4dY1lWllzX7mPBI3,2017-10-22,global
3174648,6,Perfect,Ed Sheeran,2882110,https://open.spotify.com/track/0tgVpDi06FyKpA1z0VMD4v,2017-10-23,global
3174659,17,Shape of You,Ed Sheeran,1988484,https://open.spotify.com/track/7qiZfU4dY1lWllzX7mPBI3,2017-10-23,global
3174849,7,Perfect,Ed Sheeran,2975366,https://open.spotify.com/track/0tgVpDi06FyKpA1z0VMD4v,2017-10-24,global
3174859,17,Shape of You,Ed Sheeran,2026612,https://open.spotify.com/track/7qiZfU4dY1lWllzX7mPBI3,2017-10-24,global
3175049,7,Perfect,Ed Sheeran,2982383,https://open.spotify.com/track/0tgVpDi06FyKpA1z0VMD4v,2017-10-25,global
3175060,18,Shape of You,Ed Sheeran,2052199,https://open.spotify.com/track/7qiZfU4dY1lWllzX7mPBI3,2017-10-25,global
3175249,7,Perfect,Ed Sheeran,3005373,https://open.spotify.com/track/0tgVpDi06FyKpA1z0VMD4v,2017-10-26,global
3175260,18,Shape of You,Ed Sheeran,2063321,https://open.spotify.com/track/7qiZfU4dY1lWllzX7mPBI3,2017-10-26,global
3175451,9,Perfect,Ed Sheeran,3021391,https://open.spotify.com/track/0tgVpDi06FyKpA1z0VMD4v,2017-10-27,global
3175460,18,Shape of You,Ed Sheeran,2161702,https://open.spotify.com/track/7qiZfU4dY1lWllzX7mPBI3,2017-10-27,global
3175651,9,Perfect,Ed Sheeran,2834523,https://open.spotify.com/track/0tgVpDi06FyKpA1z0VMD4v,2017-10-28,global
3175658,16,Shape of You,Ed Sheeran,2104768,https://open.spotify.com/track/7qiZfU4dY1lWllzX7mPBI3,2017-10-28,global
3175850,8,Perfect,Ed Sheeran,2619744,https://open.spotify.com/track/0tgVpDi06FyKpA1z0VMD4v,2017-10-29,global
3175859,17,Shape of You,Ed Sheeran,1840151,https://open.spotify.com/track/7qiZfU4dY1lWllzX7mPBI3,2017-10-29,global
3176049,7,Perfect,Ed Sheeran,2950839,https://open.spotify.com/track/0tgVpDi06FyKpA1z0VMD4v,2017-10-30,global
3176060,18,Shape of You,Ed Sheeran,1947920,https://open.spotify.com/track/7qiZfU4dY1lWllzX7mPBI3,2017-10-30,global
3176249,7,Perfect,Ed Sheeran,2968330,https://open.spotify.com/track/0tgVpDi06FyKpA1z0VMD4v,2017-10-31,global
3176263,21,Shape of You,Ed Sheeran,1968920,https://open.spotify.com/track/7qiZfU4dY1lWllzX7mPBI3,2017-10-31,global
3176449,7,Perfect,Ed Sheeran,2958426,https://open.spotify.com/track/0tgVpDi06FyKpA1z0VMD4v,2017-11-01,global
3176463,21,Shape of You,Ed Sheeran,1915018,https://open.spotify.com/track/7qiZfU4dY1lWllzX7mPBI3,2017-11-01,global
3176650,8,Perfect,Ed Sheeran,3034851,https://open.spotify.com/track/0tgVpDi06FyKpA1z0VMD4v,2017-11-02,global
3176661,19,Shape of You,Ed Sheeran,1974912,https://open.spotify.com/track/7qiZfU4dY1lWllzX7mPBI3,2017-11-02,global
3176850,8,Perfect,Ed Sheeran,3054035,https://open.spotify.com/track/0tgVpDi06FyKpA1z0VMD4v,2017-11-03,global
3176860,18,Shape of You,Ed Sheeran,2077438,https://open.spotify.com/track/7qiZfU4dY1lWllzX7mPBI3,2017-11-03,global
3177050,8,Perfect,Ed Sheeran,2870506,https://open.spotify.com/track/0tgVpDi06FyKpA1z0VMD4v,2017-11-04,global
3177060,18,Shape of You,Ed Sheeran,2027782,https://open.spotify.com/track/7qiZfU4dY1lWllzX7mPBI3,2017-11-04,global
3177249,7,Perfect,Ed Sheeran,2655518,https://open.spotify.com/track/0tgVpDi06FyKpA1z0VMD4v,2017-11-05,global
3177259,17,Shape of You,Ed Sheeran,1789140,https://open.spotify.com/track/7qiZfU4dY1lWllzX7mPBI3,2017-11-05,global
3177449,7,Perfect,Ed Sheeran,2953608,https://open.spotify.com/track/0tgVpDi06FyKpA1z0VMD4v,2017-11-06,global
3177461,19,Shape of You,Ed Sheeran,1853118,https://open.spotify.com/track/7qiZfU4dY1lWllzX7mPBI3,2017-11-06,global
3177649,7,Perfect,Ed Sheeran,3061779,https://open.spotify.com/track/0tgVpDi06FyKpA1z0VMD4v,2017-11-07,global
3177661,19,Shape of You,Ed Sheeran,1907401,https://open.spotify.com/track/7qiZfU4dY1lWllzX7mPBI3,2017-11-07,global
3177849,7,Perfect,Ed Sheeran,3062853,https://open.spotify.com/track/0tgVpDi06FyKpA1z0VMD4v,2017-11-08,global
3177860,18,Shape of You,Ed Sheeran,1934374,https://open.spotify.com/track/7qiZfU4dY1lWllzX7mPBI3,2017-11-08,global
3178049,7,Perfect,Ed Sheeran,3082293,https://open.spotify.com/track/0tgVpDi06FyKpA1z0VMD4v,2017-11-09,global
3178059,17,Shape of You,Ed Sheeran,1953698,https://open.spotify.com/track/7qiZfU4dY1lWllzX7mPBI3,2017-11-09,global
3178248,6,Perfect,Ed Sheeran,3277255,https://open.spotify.com/track/0tgVpDi06FyKpA1z0VMD4v,2017-11-10,global
3178258,16,Shape of You,Ed Sheeran,2086174,https://open.spotify.com/track/7qiZfU4dY1lWllzX7mPBI3,2017-11-10,global
3178449,7,Perfect,Ed Sheeran,3208801,https://open.spotify.com/track/0tgVpDi06FyKpA1z0VMD4v,2017-11-11,global
3178459,17,Shape of You,Ed Sheeran,2091308,https://open.spotify.com/track/7qiZfU4dY1lWllzX7mPBI3,2017-11-11,global
3178648,6,Perfect,Ed Sheeran,2977159,https://open.spotify.com/track/0tgVpDi06FyKpA1z0VMD4v,2017-11-12,global
3178658,16,Shape of You,Ed Sheeran,1835328,https://open.spotify.com/track/7qiZfU4dY1lWllzX7mPBI3,2017-11-12,global
3178847,5,Perfect,Ed Sheeran,3228678,https://open.spotify.com/track/0tgVpDi06FyKpA1z0VMD4v,2017-11-13,global
3178860,18,Shape of You,Ed Sheeran,1856776,https://open.spotify.com/track/7qiZfU4dY1lWllzX7mPBI3,2017-11-13,global
3179047,5,Perfect,Ed Sheeran,3328486,https://open.spotify.com/track/0tgVpDi06FyKpA1z0VMD4v,2017-11-14,global
3179060,18,Shape of You,Ed Sheeran,1920743,https://open.spotify.com/track/7qiZfU4dY1lWllzX7mPBI3,2017-11-14,global
3179247,5,Perfect,Ed Sheeran,3386045,https://open.spotify.com/track/0tgVpDi06FyKpA1z0VMD4v,2017-11-15,global
3179260,18,Shape of You,Ed Sheeran,1976277,https://open.spotify.com/track/7qiZfU4dY1lWllzX7mPBI3,2017-11-15,global
3179447,5,Perfect,Ed Sheeran,3374883,https://open.spotify.com/track/0tgVpDi06FyKpA1z0VMD4v,2017-11-16,global
3179460,18,Shape of You,Ed Sheeran,1963930,https://open.spotify.com/track/7qiZfU4dY1lWllzX7mPBI3,2017-11-16,global
3179648,6,Perfect,Ed Sheeran,3433009,https://open.spotify.com/track/0tgVpDi06FyKpA1z0VMD4v,2017-11-17,global
3179658,16,Shape of You,Ed Sheeran,2072237,https://open.spotify.com/track/7qiZfU4dY1lWllzX7mPBI3,2017-11-17,global
3179849,7,Perfect,Ed Sheeran,3301180,https://open.spotify.com/track/0tgVpDi06FyKpA1z0VMD4v,2017-11-18,global
3179856,14,Shape of You,Ed Sheeran,2061929,https://open.spotify.com/track/7qiZfU4dY1lWllzX7mPBI3,2017-11-18,global
3180047,5,Perfect,Ed Sheeran,3056308,https://open.spotify.com/track/0tgVpDi06FyKpA1z0VMD4v,2017-11-19,global
3180058,16,Shape of You,Ed Sheeran,1839538,https://open.spotify.com/track/7qiZfU4dY1lWllzX7mPBI3,2017-11-19,global
3180247,5,Perfect,Ed Sheeran,3278096,https://open.spotify.com/track/0tgVpDi06FyKpA1z0VMD4v,2017-11-20,global
3180259,17,Shape of You,Ed Sheeran,1876887,https://open.spotify.com/track/7qiZfU4dY1lWllzX7mPBI3,2017-11-20,global
3180447,5,Perfect,Ed Sheeran,3414794,https://open.spotify.com/track/0tgVpDi06FyKpA1z0VMD4v,2017-11-21,global
3180461,19,Shape of You,Ed Sheeran,1904590,https://open.spotify.com/track/7qiZfU4dY1lWllzX7mPBI3,2017-11-21,global
3180647,5,Perfect,Ed Sheeran,3442311,https://open.spotify.com/track/0tgVpDi06FyKpA1z0VMD4v,2017-11-22,global
3180660,18,Shape of You,Ed Sheeran,1950261,https://open.spotify.com/track/7qiZfU4dY1lWllzX7mPBI3,2017-11-22,global
3180847,5,Perfect,Ed Sheeran,3378212,https://open.spotify.com/track/0tgVpDi06FyKpA1z0VMD4v,2017-11-23,global
3180859,17,Shape of You,Ed Sheeran,1921981,https://open.spotify.com/track/7qiZfU4dY1lWllzX7mPBI3,2017-11-23,global
3181047,5,Perfect,Ed Sheeran,3289026,https://open.spotify.com/track/0tgVpDi06FyKpA1z0VMD4v,2017-11-24,global
3181057,15,Shape of You,Ed Sheeran,1973157,https://open.spotify.com/track/7qiZfU4dY1lWllzX7mPBI3,2017-11-24,global
3181247,5,Perfect,Ed Sheeran,3316227,https://open.spotify.com/track/0tgVpDi06FyKpA1z0VMD4v,2017-11-25,global
3181256,14,Shape of You,Ed Sheeran,2025515,https://open.spotify.com/track/7qiZfU4dY1lWllzX7mPBI3,2017-11-25,global
3181447,5,Perfect,Ed Sheeran,3114614,https://open.spotify.com/track/0tgVpDi06FyKpA1z0VMD4v,2017-11-26,global
3181458,16,Shape of You,Ed Sheeran,1810001,https://open.spotify.com/track/7qiZfU4dY1lWllzX7mPBI3,2017-11-26,global
3181646,4,Perfect,Ed Sheeran,3372490,https://open.spotify.com/track/0tgVpDi06FyKpA1z0VMD4v,2017-11-27,global
3181660,18,Shape of You,Ed Sheeran,1831668,https://open.spotify.com/track/7qiZfU4dY1lWllzX7mPBI3,2017-11-27,global
3181846,4,Perfect,Ed Sheeran,3480461,https://open.spotify.com/track/0tgVpDi06FyKpA1z0VMD4v,2017-11-28,global
3181860,18,Shape of You,Ed Sheeran,1883617,https://open.spotify.com/track/7qiZfU4dY1lWllzX7mPBI3,2017-11-28,global
3182046,4,Perfect,Ed Sheeran,3479906,https://open.spotify.com/track/0tgVpDi06FyKpA1z0VMD4v,2017-11-29,global
3182060,18,Shape of You,Ed Sheeran,1940776,https://open.spotify.com/track/7qiZfU4dY1lWllzX7mPBI3,2017-11-29,global
3182245,3,Perfect,Ed Sheeran,3511554,https://open.spotify.com/track/0tgVpDi06FyKpA1z0VMD4v,2017-11-30,global
3182260,18,Shape of You,Ed Sheeran,1950094,https://open.spotify.com/track/7qiZfU4dY1lWllzX7mPBI3,2017-11-30,global
3182448,6,Perfect,Ed Sheeran,3451720,https://open.spotify.com/track/0tgVpDi06FyKpA1z0VMD4v,2017-12-01,global
3182462,20,Shape of You,Ed Sheeran,2049228,https://open.spotify.com/track/7qiZfU4dY1lWllzX7mPBI3,2017-12-01,global
3182650,8,Perfect,Ed Sheeran,3099253,https://open.spotify.com/track/0tgVpDi06FyKpA1z0VMD4v,2017-12-02,global
3182661,19,Shape of You,Ed Sheeran,1992863,https://open.spotify.com/track/7qiZfU4dY1lWllzX7mPBI3,2017-12-02,global
3182850,8,Perfect,Ed Sheeran,2805877,https://open.spotify.com/track/0tgVpDi06FyKpA1z0VMD4v,2017-12-03,global
3182864,22,Shape of You,Ed Sheeran,1754920,https://open.spotify.com/track/7qiZfU4dY1lWllzX7mPBI3,2017-12-03,global
3183048,6,Perfect,Ed Sheeran,2970853,https://open.spotify.com/track/0tgVpDi06FyKpA1z0VMD4v,2017-12-04,global
3183064,22,Shape of You,Ed Sheeran,1810605,https://open.spotify.com/track/7qiZfU4dY1lWllzX7mPBI3,2017-12-04,global
3183248,6,Perfect,Ed Sheeran,2994760,https://open.spotify.com/track/0tgVpDi06FyKpA1z0VMD4v,2017-12-05,global
3183259,17,Shape of You,Ed Sheeran,2019077,https://open.spotify.com/track/7qiZfU4dY1lWllzX7mPBI3,2017-12-05,global
3183448,6,Perfect,Ed Sheeran,2953070,https://open.spotify.com/track/0tgVpDi06FyKpA1z0VMD4v,2017-12-06,global
3183458,16,Shape of You,Ed Sheeran,2248661,https://open.spotify.com/track/7qiZfU4dY1lWllzX7mPBI3,2017-12-06,global
3183648,6,Perfect,Ed Sheeran,2938557,https://open.spotify.com/track/0tgVpDi06FyKpA1z0VMD4v,2017-12-07,global
3183655,13,Shape of You,Ed Sheeran,2485084,https://open.spotify.com/track/7qiZfU4dY1lWllzX7mPBI3,2017-12-07,global
3183850,8,Perfect,Ed Sheeran,2905738,https://open.spotify.com/track/0tgVpDi06FyKpA1z0VMD4v,2017-12-08,global
3183855,13,Shape of You,Ed Sheeran,2467232,https://open.spotify.com/track/7qiZfU4dY1lWllzX7mPBI3,2017-12-08,global
3184050,8,Perfect,Ed Sheeran,2686213,https://open.spotify.com/track/0tgVpDi06FyKpA1z0VMD4v,2017-12-09,global
3184056,14,Shape of You,Ed Sheeran,2370799,https://open.spotify.com/track/7qiZfU4dY1lWllzX7mPBI3,2017-12-09,global
3184251,9,Perfect,Ed Sheeran,2455060,https://open.spotify.com/track/0tgVpDi06FyKpA1z0VMD4v,2017-12-10,global
3184256,14,Shape of You,Ed Sheeran,2050050,https://open.spotify.com/track/7qiZfU4dY1lWllzX7mPBI3,2017-12-10,global
3184449,7,Perfect,Ed Sheeran,2633200,https://open.spotify.com/track/0tgVpDi06FyKpA1z0VMD4v,2017-12-11,global
3184457,15,Shape of You,Ed Sheeran,2098024,https://open.spotify.com/track/7qiZfU4dY1lWllzX7mPBI3,2017-12-11,global
3184651,9,Perfect,Ed Sheeran,2680695,https://open.spotify.com/track/0tgVpDi06FyKpA1z0VMD4v,2017-12-12,global
3184659,17,Shape of You,Ed Sheeran,2157951,https://open.spotify.com/track/7qiZfU4dY1lWllzX7mPBI3,2017-12-12,global
3184850,8,Perfect,Ed Sheeran,2680924,https://open.spotify.com/track/0tgVpDi06FyKpA1z0VMD4v,2017-12-13,global
3184857,15,Shape of You,Ed Sheeran,2184662,https://open.spotify.com/track/7qiZfU4dY1lWllzX7mPBI3,2017-12-13,global
3185050,8,Perfect,Ed Sheeran,2697925,https://open.spotify.com/track/0tgVpDi06FyKpA1z0VMD4v,2017-12-14,global
3185058,16,Shape of You,Ed Sheeran,2190090,https://open.spotify.com/track/7qiZfU4dY1lWllzX7mPBI3,2017-12-14,global
3185251,9,Perfect,Ed Sheeran,2794488,https://open.spotify.com/track/0tgVpDi06FyKpA1z0VMD4v,2017-12-15,global
3185258,16,Shape of You,Ed Sheeran,2262703,https://open.spotify.com/track/7qiZfU4dY1lWllzX7mPBI3,2017-12-15,global
3185451,9,Perfect,Ed Sheeran,2682068,https://open.spotify.com/track/0tgVpDi06FyKpA1z0VMD4v,2017-12-16,global
3185459,17,Shape of You,Ed Sheeran,2237018,https://open.spotify.com/track/7qiZfU4dY1lWllzX7mPBI3,2017-12-16,global
3185650,8,Perfect,Ed Sheeran,2497177,https://open.spotify.com/track/0tgVpDi06FyKpA1z0VMD4v,2017-12-17,global
3185659,17,Shape of You,Ed Sheeran,1964782,https://open.spotify.com/track/7qiZfU4dY1lWllzX7mPBI3,2017-12-17,global
3185850,8,Perfect,Ed Sheeran,2717012,https://open.spotify.com/track/0tgVpDi06FyKpA1z0VMD4v,2017-12-18,global
3185859,17,Shape of You,Ed Sheeran,2042307,https://open.spotify.com/track/7qiZfU4dY1lWllzX7mPBI3,2017-12-18,global
3186049,7,Perfect,Ed Sheeran,2807395,https://open.spotify.com/track/0tgVpDi06FyKpA1z0VMD4v,2017-12-19,global
3186059,17,Shape of You,Ed Sheeran,2142458,https://open.spotify.com/track/7qiZfU4dY1lWllzX7mPBI3,2017-12-19,global
3186249,7,Perfect,Ed Sheeran,2842802,https://open.spotify.com/track/0tgVpDi06FyKpA1z0VMD4v,2017-12-20,global
3186259,17,Shape of You,Ed Sheeran,2223693,https://open.spotify.com/track/7qiZfU4dY1lWllzX7mPBI3,2017-12-20,global
3186449,7,Perfect,Ed Sheeran,2844563,https://open.spotify.com/track/0tgVpDi06FyKpA1z0VMD4v,2017-12-21,global
3186459,17,Shape of You,Ed Sheeran,2260765,https://open.spotify.com/track/7qiZfU4dY1lWllzX7mPBI3,2017-12-21,global
3186650,8,Perfect,Ed Sheeran,2836307,https://open.spotify.com/track/0tgVpDi06FyKpA1z0VMD4v,2017-12-22,global
3186659,17,Shape of You,Ed Sheeran,2263534,https://open.spotify.com/track/7qiZfU4dY1lWllzX7mPBI3,2017-12-22,global
3186850,8,Perfect,Ed Sheeran,2678478,https://open.spotify.com/track/0tgVpDi06FyKpA1z0VMD4v,2017-12-23,global
3186860,18,Shape of You,Ed Sheeran,2202228,https://open.spotify.com/track/7qiZfU4dY1lWllzX7mPBI3,2017-12-23,global
3187060,18,Perfect,Ed Sheeran,2545781,https://open.spotify.com/track/0tgVpDi06FyKpA1z0VMD4v,2017-12-24,global
3187075,33,Shape of You,Ed Sheeran,2068885,https://open.spotify.com/track/7qiZfU4dY1lWllzX7mPBI3,2017-12-24,global
3187264,22,Perfect,Ed Sheeran,2151232,https://open.spotify.com/track/0tgVpDi06FyKpA1z0VMD4v,2017-12-25,global
3187278,36,Shape of You,Ed Sheeran,1793678,https://open.spotify.com/track/7qiZfU4dY1lWllzX7mPBI3,2017-12-25,global
3187447,5,Perfect,Ed Sheeran,2370795,https://open.spotify.com/track/0tgVpDi06FyKpA1z0VMD4v,2017-12-26,global
3187455,13,Shape of You,Ed Sheeran,1943675,https://open.spotify.com/track/7qiZfU4dY1lWllzX7mPBI3,2017-12-26,global
3187648,6,Perfect,Ed Sheeran,2648685,https://open.spotify.com/track/0tgVpDi06FyKpA1z0VMD4v,2017-12-27,global
3187655,13,Shape of You,Ed Sheeran,2203138,https://open.spotify.com/track/7qiZfU4dY1lWllzX7mPBI3,2017-12-27,global
3187848,6,Perfect,Ed Sheeran,2705412,https://open.spotify.com/track/0tgVpDi06FyKpA1z0VMD4v,2017-12-28,global
3187855,13,Shape of You,Ed Sheeran,2272600,https://open.spotify.com/track/7qiZfU4dY1lWllzX7mPBI3,2017-12-28,global
3188048,6,Perfect,Ed Sheeran,2746190,https://open.spotify.com/track/0tgVpDi06FyKpA1z0VMD4v,2017-12-29,global
3188055,13,Shape of You,Ed Sheeran,2337631,https://open.spotify.com/track/7qiZfU4dY1lWllzX7mPBI3,2017-12-29,global
3188248,6,Perfect,Ed Sheeran,2658361,https://open.spotify.com/track/0tgVpDi06FyKpA1z0VMD4v,2017-12-30,global
3188251,9,Shape of You,Ed Sheeran,2360507,https://open.spotify.com/track/7qiZfU4dY1lWllzX7mPBI3,2017-12-30,global
3188446,4,Shape of You,Ed Sheeran,3543846,https://open.spotify.com/track/7qiZfU4dY1lWllzX7mPBI3,2017-12-31,global
3188452,10,Perfect,Ed Sheeran,2805940,https://open.spotify.com/track/0tgVpDi06FyKpA1z0VMD4v,2017-12-31,global
